%!PS-Adobe-2.0 EPSF-2.0
%%Creator: OKS Library, <Igor.Soloviev@cern.ch>, CERN EP/ATD
%%Title: unknown
%%BoundingBox: 20 127 574 830
%%Pages: 1
%%DocumentFonts: Helvetica-Narrow
%%EndComments

% set image font
/Helvetica-Narrow findfont
8.80 scalefont
setfont

gsave
0.73 setlinewidth
0.00 0.00 0.00 setrgbcolor
 224.55 551.40 moveto 236.28 545.54 lineto stroke
 224.55 551.40 moveto 236.28 557.27 lineto stroke
 236.28 557.27 moveto 236.28 545.54 lineto stroke
 236.28 551.40 moveto 251.68 551.40 lineto stroke
 184.23 461.22 moveto 178.36 449.49 lineto stroke
 184.23 461.22 moveto 190.09 449.49 lineto stroke
 178.36 449.49 moveto 190.09 449.49 lineto stroke
 184.23 449.49 moveto 184.23 145.23 lineto stroke
 184.23 145.23 moveto 210.62 145.23 lineto stroke
 239.95 720.76 moveto 251.68 714.89 lineto stroke
 239.95 720.76 moveto 251.68 726.62 lineto stroke
 251.68 726.62 moveto 251.68 714.89 lineto stroke
 251.68 720.76 moveto 301.53 720.76 lineto stroke
 112.38 550.67 moveto 100.65 544.80 lineto stroke
 112.38 550.67 moveto 100.65 556.53 lineto stroke
 100.65 556.53 moveto 100.65 544.80 lineto stroke
 100.65 550.67 moveto 63.26 550.67 lineto stroke
 63.26 550.67 moveto 63.26 452.42 lineto stroke
 184.23 461.22 moveto 178.36 449.49 lineto stroke
 184.23 461.22 moveto 190.09 449.49 lineto stroke
 178.36 449.49 moveto 190.09 449.49 lineto stroke
 184.23 449.49 moveto 184.23 173.09 lineto stroke
 184.23 173.09 moveto 209.89 173.09 lineto stroke
 184.23 461.22 moveto 178.36 449.49 lineto stroke
 184.23 461.22 moveto 190.09 449.49 lineto stroke
 178.36 449.49 moveto 190.09 449.49 lineto stroke
 184.23 449.49 moveto 184.23 242.01 lineto stroke
 184.23 242.01 moveto 211.35 242.01 lineto stroke
 470.89 470.75 moveto 465.03 459.02 lineto stroke
 470.89 470.75 moveto 476.76 459.02 lineto stroke
 465.03 459.02 moveto 476.76 459.02 lineto stroke
 470.89 459.02 moveto 470.89 206.08 lineto stroke
 470.89 206.08 moveto 280.27 206.08 lineto stroke
 184.23 461.22 moveto 178.36 449.49 lineto stroke
 184.23 461.22 moveto 190.09 449.49 lineto stroke
 178.36 449.49 moveto 190.09 449.49 lineto stroke
 184.23 449.49 moveto 184.23 206.82 lineto stroke
 184.23 206.82 moveto 211.35 206.82 lineto stroke
 470.89 470.75 moveto 465.03 459.02 lineto stroke
 470.89 470.75 moveto 476.76 459.02 lineto stroke
 465.03 459.02 moveto 476.76 459.02 lineto stroke
 470.89 459.02 moveto 470.89 349.78 lineto stroke
 470.89 349.78 moveto 286.87 349.78 lineto stroke
 184.23 461.22 moveto 178.36 449.49 lineto stroke
 184.23 461.22 moveto 190.09 449.49 lineto stroke
 178.36 449.49 moveto 190.09 449.49 lineto stroke
 184.23 449.49 moveto 184.23 349.05 lineto stroke
 184.23 349.05 moveto 212.82 349.05 lineto stroke
 470.89 470.75 moveto 465.03 459.02 lineto stroke
 470.89 470.75 moveto 476.76 459.02 lineto stroke
 465.03 459.02 moveto 476.76 459.02 lineto stroke
 470.89 459.02 moveto 470.89 305.06 lineto stroke
 470.89 305.06 moveto 288.34 305.06 lineto stroke
 184.23 461.22 moveto 178.36 449.49 lineto stroke
 184.23 461.22 moveto 190.09 449.49 lineto stroke
 178.36 449.49 moveto 190.09 449.49 lineto stroke
 184.23 449.49 moveto 184.23 309.46 lineto stroke
 184.23 309.46 moveto 210.62 309.46 lineto stroke
 470.89 470.75 moveto 465.03 459.02 lineto stroke
 470.89 470.75 moveto 476.76 459.02 lineto stroke
 465.03 459.02 moveto 476.76 459.02 lineto stroke
 470.89 459.02 moveto 470.89 268.40 lineto stroke
 470.89 268.40 moveto 289.07 268.40 lineto stroke
 184.23 461.22 moveto 178.36 449.49 lineto stroke
 184.23 461.22 moveto 190.09 449.49 lineto stroke
 178.36 449.49 moveto 190.09 449.49 lineto stroke
 184.23 449.49 moveto 184.23 270.60 lineto stroke
 184.23 270.60 moveto 212.09 270.60 lineto stroke
 268.54 395.97 moveto 268.54 439.96 lineto stroke
 268.54 439.96 moveto 268.54 439.96 lineto stroke
 268.54 439.96 moveto 268.54 472.95 lineto stroke
 470.89 470.75 moveto 465.03 459.02 lineto stroke
 470.89 470.75 moveto 476.76 459.02 lineto stroke
 465.03 459.02 moveto 476.76 459.02 lineto stroke
 470.89 459.02 moveto 470.89 384.24 lineto stroke
 470.89 384.24 moveto 288.34 384.24 lineto stroke
 184.23 461.22 moveto 178.36 449.49 lineto stroke
 184.23 461.22 moveto 190.09 449.49 lineto stroke
 178.36 449.49 moveto 190.09 449.49 lineto stroke
 184.23 449.49 moveto 184.23 382.04 lineto stroke
 184.23 382.04 moveto 212.82 382.04 lineto stroke
 487.02 496.41 moveto 487.02 533.07 lineto stroke
 386.58 494.21 moveto 360.18 494.21 lineto stroke
 178.36 514.01 moveto 172.50 502.28 lineto stroke
 178.36 514.01 moveto 184.23 502.28 lineto stroke
 172.50 502.28 moveto 184.23 502.28 lineto stroke
 178.36 502.28 moveto 178.36 486.88 lineto stroke
 140.24 612.99 moveto 134.37 601.25 lineto stroke
 140.24 612.99 moveto 146.10 601.25 lineto stroke
 134.37 601.25 moveto 146.10 601.25 lineto stroke
 140.24 601.25 moveto 140.24 579.26 lineto stroke
 132.17 612.99 moveto 132.17 596.12 lineto stroke
 132.17 596.12 moveto 26.60 596.12 lineto stroke
 26.60 596.12 moveto 26.60 631.31 lineto stroke
 26.60 631.31 moveto 78.65 631.31 lineto stroke
 185.69 612.99 moveto 185.69 596.12 lineto stroke
 185.69 596.12 moveto 292.00 596.12 lineto stroke
 292.00 596.12 moveto 292.00 631.31 lineto stroke
 292.00 631.31 moveto 239.95 631.31 lineto stroke
grestore
gsave
1.47 setlinewidth
0.00 0.00 0.00 setrgbcolor
 79.39 822.67 moveto 239.21 822.67 lineto stroke
 239.21 822.67 moveto 239.21 613.72 lineto stroke
 79.39 822.67 moveto 79.39 613.72 lineto stroke
 79.39 613.72 moveto 239.21 613.72 lineto stroke
 79.39 805.81 moveto 239.21 805.81 lineto stroke
 79.39 670.90 moveto 239.21 670.90 lineto stroke
 135.11 486.15 moveto 201.09 486.15 lineto stroke
 201.09 486.15 moveto 201.09 461.96 lineto stroke
 135.11 486.15 moveto 135.11 461.96 lineto stroke
 135.11 461.96 moveto 201.09 461.96 lineto stroke
 135.11 469.29 moveto 201.09 469.29 lineto stroke
 135.11 466.35 moveto 201.09 466.35 lineto stroke
 113.11 578.53 moveto 223.82 578.53 lineto stroke
 223.82 578.53 moveto 223.82 514.74 lineto stroke
 113.11 578.53 moveto 113.11 514.74 lineto stroke
 113.11 514.74 moveto 223.82 514.74 lineto stroke
 113.11 561.66 moveto 223.82 561.66 lineto stroke
 113.11 519.14 moveto 223.82 519.14 lineto stroke
 387.31 495.68 moveto 498.75 495.68 lineto stroke
 498.75 495.68 moveto 498.75 471.49 lineto stroke
 387.31 495.68 moveto 387.31 471.49 lineto stroke
 387.31 471.49 moveto 498.75 471.49 lineto stroke
 387.31 478.82 moveto 498.75 478.82 lineto stroke
 387.31 475.89 moveto 498.75 475.89 lineto stroke
 254.61 511.08 moveto 359.45 511.08 lineto stroke
 359.45 511.08 moveto 359.45 473.69 lineto stroke
 254.61 511.08 moveto 254.61 473.69 lineto stroke
 254.61 473.69 moveto 359.45 473.69 lineto stroke
 254.61 494.21 moveto 359.45 494.21 lineto stroke
 254.61 478.08 moveto 359.45 478.08 lineto stroke
 459.89 597.59 moveto 570.60 597.59 lineto stroke
 570.60 597.59 moveto 570.60 533.80 lineto stroke
 459.89 597.59 moveto 459.89 533.80 lineto stroke
 459.89 533.80 moveto 570.60 533.80 lineto stroke
 459.89 580.73 moveto 570.60 580.73 lineto stroke
 459.89 538.20 moveto 570.60 538.20 lineto stroke
 213.55 395.24 moveto 287.60 395.24 lineto stroke
 287.60 395.24 moveto 287.60 371.04 lineto stroke
 213.55 395.24 moveto 213.55 371.04 lineto stroke
 213.55 371.04 moveto 287.60 371.04 lineto stroke
 213.55 378.38 moveto 287.60 378.38 lineto stroke
 213.55 375.44 moveto 287.60 375.44 lineto stroke
 212.82 283.80 moveto 288.34 283.80 lineto stroke
 288.34 283.80 moveto 288.34 259.60 lineto stroke
 212.82 283.80 moveto 212.82 259.60 lineto stroke
 212.82 259.60 moveto 288.34 259.60 lineto stroke
 212.82 266.94 moveto 288.34 266.94 lineto stroke
 212.82 264.00 moveto 288.34 264.00 lineto stroke
 211.35 316.79 moveto 287.60 316.79 lineto stroke
 287.60 316.79 moveto 287.60 292.60 lineto stroke
 211.35 316.79 moveto 211.35 292.60 lineto stroke
 211.35 292.60 moveto 287.60 292.60 lineto stroke
 211.35 299.93 moveto 287.60 299.93 lineto stroke
 211.35 296.99 moveto 287.60 296.99 lineto stroke
 213.55 361.51 moveto 286.14 361.51 lineto stroke
 286.14 361.51 moveto 286.14 324.12 lineto stroke
 213.55 361.51 moveto 213.55 324.12 lineto stroke
 213.55 324.12 moveto 286.14 324.12 lineto stroke
 213.55 344.65 moveto 286.14 344.65 lineto stroke
 213.55 328.52 moveto 286.14 328.52 lineto stroke
 212.09 220.01 moveto 279.54 220.01 lineto stroke
 279.54 220.01 moveto 279.54 195.82 lineto stroke
 212.09 220.01 moveto 212.09 195.82 lineto stroke
 212.09 195.82 moveto 279.54 195.82 lineto stroke
 212.09 203.15 moveto 279.54 203.15 lineto stroke
 212.09 200.22 moveto 279.54 200.22 lineto stroke
 212.09 251.54 moveto 284.67 251.54 lineto stroke
 284.67 251.54 moveto 284.67 227.34 lineto stroke
 212.09 251.54 moveto 212.09 227.34 lineto stroke
 212.09 227.34 moveto 284.67 227.34 lineto stroke
 212.09 234.68 moveto 284.67 234.68 lineto stroke
 212.09 231.74 moveto 284.67 231.74 lineto stroke
 210.62 186.29 moveto 283.20 186.29 lineto stroke
 283.20 186.29 moveto 283.20 162.09 lineto stroke
 210.62 186.29 moveto 210.62 162.09 lineto stroke
 210.62 162.09 moveto 283.20 162.09 lineto stroke
 210.62 169.43 moveto 283.20 169.43 lineto stroke
 210.62 166.49 moveto 283.20 166.49 lineto stroke
 27.33 451.69 moveto 172.50 451.69 lineto stroke
 172.50 451.69 moveto 172.50 374.71 lineto stroke
 27.33 451.69 moveto 27.33 374.71 lineto stroke
 27.33 374.71 moveto 172.50 374.71 lineto stroke
 27.33 434.83 moveto 172.50 434.83 lineto stroke
 27.33 379.11 moveto 172.50 379.11 lineto stroke
 302.27 731.76 moveto 404.17 731.76 lineto stroke
 404.17 731.76 moveto 404.17 707.56 lineto stroke
 302.27 731.76 moveto 302.27 707.56 lineto stroke
 302.27 707.56 moveto 404.17 707.56 lineto stroke
 302.27 714.89 moveto 404.17 714.89 lineto stroke
 302.27 711.96 moveto 404.17 711.96 lineto stroke
 211.35 154.76 moveto 275.87 154.76 lineto stroke
 275.87 154.76 moveto 275.87 130.57 lineto stroke
 211.35 154.76 moveto 211.35 130.57 lineto stroke
 211.35 130.57 moveto 275.87 130.57 lineto stroke
 211.35 137.90 moveto 275.87 137.90 lineto stroke
 211.35 134.97 moveto 275.87 134.97 lineto stroke
 252.41 579.26 moveto 443.76 579.26 lineto stroke
 443.76 579.26 moveto 443.76 528.67 lineto stroke
 252.41 579.26 moveto 252.41 528.67 lineto stroke
 252.41 528.67 moveto 443.76 528.67 lineto stroke
 252.41 562.40 moveto 443.76 562.40 lineto stroke
 252.41 533.07 moveto 443.76 533.07 lineto stroke
grestore
 199.62 429.70 moveto (MulticastToROS) show
 272.21 462.69 moveto (1..1) show
 444.50 512.54 moveto (Interfaces) show
 490.69 522.81 moveto (0..N) show
 312.53 483.95 moveto (belongs_to) show
 363.85 499.35 moveto (0..N) show
 31.00 585.86 moveto (ShutdownDependsFrom) show
 59.59 621.05 moveto (0..N) show
 294.93 601.25 moveto (InitializationDependsFrom) show
 243.61 636.45 moveto (0..N) show
 136.57 810.94 moveto (Application) show
 82.32 794.81 moveto (Name: string = 'Unknown Application') show
 82.32 781.61 moveto (Parameters: string) show
 82.32 768.41 moveto (RestartParameters: string) show
 82.32 755.22 moveto (ControlledByOnline: bool = 'true') show
 82.32 742.02 moveto (IfDies: enum) show
 82.32 728.82 moveto (IfFailed: enum) show
 82.32 715.63 moveto (StartAt: enum = 'Boot') show
 82.32 702.43 moveto (StopAt: enum = 'Shutdown') show
 82.32 689.23 moveto (InitTimeout: u32 = '60') show
 82.32 676.04 moveto (InputDevice: string) show
 82.32 659.17 moveto (get_parameters) show
 82.32 645.98 moveto (get_some_parameters) show
 82.32 632.78 moveto (get_host) show
 82.32 619.58 moveto (get_output_error_device) show
 139.50 474.42 moveto (DFApplication) show
 123.38 566.80 moveto (RunControlApplication) show
 116.04 550.67 moveto (ActionTimeout: s32 = '10') show
 116.04 537.47 moveto (ShortTimeout: s32 = '5') show
 116.04 524.27 moveto (IfError: enum) show
 391.71 483.95 moveto (DFMessagePassingNode) show
 270.01 499.35 moveto (DCMulticastGroup) show
 257.54 483.22 moveto (MulticastAddress: string) show
 489.22 585.86 moveto (InterfaceMap) show
 462.83 569.73 moveto (Peer: enum = 'ALL') show
 462.83 556.53 moveto (Label: string) show
 462.83 543.34 moveto (Protocol: enum = 'default') show
 217.95 383.51 moveto (DFMApplication) show
 217.22 272.07 moveto (L2PUApplication) show
 215.75 305.06 moveto (L2SVApplication) show
 217.95 349.78 moveto (ROSApplication) show
 216.49 333.65 moveto (Id: u8 = '0') show
 216.49 208.28 moveto (SFIApplication) show
 216.49 239.81 moveto (SFOApplication) show
 215.02 174.56 moveto (RoIBApplication) show
 65.46 439.96 moveto (EFD_Application) show
 30.26 423.83 moveto (sfi: list of string = 'localhost:7000') show
 30.26 410.63 moveto (sfo: list of string = 'localhost:7001') show
 30.26 397.44 moveto (StartIn: string = '/tmp/${USER}/efd') show
 30.26 384.24 moveto (clearWD: bool = 'no') show
 306.66 720.03 moveto (GATHERERApplication) show
 215.75 143.03 moveto (PTApplication) show
 317.66 567.53 moveto (LocalController) show
 255.34 551.40 moveto (ErrorHandler: string = 'DFErrorHandler_MRS') show
 255.34 538.20 moveto (InfoHandler: string = 'DFInfoHandler_IS') show
showpage
