%!PS-Adobe-2.0 EPSF-2.0
%%Creator: OKS Library, <Igor.Soloviev@cern.ch>, CERN EP/ATD
%%Title: unknown
%%BoundingBox: 20 94 575 830
%%Pages: 1
%%DocumentFonts: Helvetica-Narrow
%%EndComments

% set image font
/Helvetica-Narrow findfont
6.91 scalefont
setfont

% draw image box
gsave
1.15 setlinewidth
0.00 0.00 0.00 setrgbcolor
 20.00 830.00 moveto 20.00 94.80 lineto stroke
 20.00 94.80 moveto 575.00 94.80 lineto stroke
 575.00 94.80 moveto 575.00 830.00 lineto stroke
 20.00 830.00 moveto 575.00 830.00 lineto stroke
grestore
gsave
0.58 setlinewidth
0.00 0.00 0.00 setrgbcolor
 303.83 664.77 moveto 313.04 660.16 lineto stroke
 303.83 664.77 moveto 313.04 669.37 lineto stroke
 313.04 669.37 moveto 313.04 660.16 lineto stroke
 313.04 664.77 moveto 321.68 664.77 lineto stroke
 241.65 710.25 moveto 237.05 701.04 lineto stroke
 241.65 710.25 moveto 246.26 701.04 lineto stroke
 237.05 701.04 moveto 246.26 701.04 lineto stroke
 241.65 701.04 moveto 241.65 697.58 lineto stroke
 241.65 697.58 moveto 241.65 697.58 lineto stroke
 241.65 697.58 moveto 241.65 690.67 lineto stroke
 327.44 568.04 moveto 322.83 577.26 lineto stroke
 327.44 568.04 moveto 332.04 577.26 lineto stroke
 322.83 577.26 moveto 332.04 577.26 lineto stroke
 327.44 577.26 moveto 327.44 602.59 lineto stroke
 327.44 602.59 moveto 327.44 602.59 lineto stroke
 327.44 602.59 moveto 327.44 650.37 lineto stroke
 374.07 547.89 moveto 369.47 538.68 lineto stroke
 374.07 547.89 moveto 378.68 538.68 lineto stroke
 369.47 538.68 moveto 378.68 538.68 lineto stroke
 374.07 538.68 moveto 374.07 220.88 lineto stroke
 374.07 220.88 moveto 259.50 220.88 lineto stroke
 148.96 540.41 moveto 144.36 531.20 lineto stroke
 148.96 540.41 moveto 153.57 531.20 lineto stroke
 144.36 531.20 moveto 153.57 531.20 lineto stroke
 148.96 531.20 moveto 148.96 220.88 lineto stroke
 148.96 220.88 moveto 166.81 220.88 lineto stroke
 374.07 547.89 moveto 369.47 538.68 lineto stroke
 374.07 547.89 moveto 378.68 538.68 lineto stroke
 369.47 538.68 moveto 378.68 538.68 lineto stroke
 374.07 538.68 moveto 374.07 273.85 lineto stroke
 374.07 273.85 moveto 273.32 273.85 lineto stroke
 148.96 540.41 moveto 144.36 531.20 lineto stroke
 148.96 540.41 moveto 153.57 531.20 lineto stroke
 144.36 531.20 moveto 153.57 531.20 lineto stroke
 148.96 531.20 moveto 148.96 274.42 lineto stroke
 148.96 274.42 moveto 167.96 274.42 lineto stroke
 218.63 144.89 moveto 214.02 135.67 lineto stroke
 218.63 144.89 moveto 223.23 135.67 lineto stroke
 214.02 135.67 moveto 223.23 135.67 lineto stroke
 218.63 135.67 moveto 218.63 128.77 lineto stroke
 218.63 128.77 moveto 294.05 128.77 lineto stroke
 294.05 128.77 moveto 294.05 116.68 lineto stroke
 218.63 144.89 moveto 214.02 135.67 lineto stroke
 218.63 144.89 moveto 223.23 135.67 lineto stroke
 214.02 135.67 moveto 223.23 135.67 lineto stroke
 218.63 135.67 moveto 218.63 128.77 lineto stroke
 218.63 128.77 moveto 181.20 128.77 lineto stroke
 181.20 128.77 moveto 181.20 116.68 lineto stroke
 148.96 540.41 moveto 144.36 531.20 lineto stroke
 148.96 540.41 moveto 153.57 531.20 lineto stroke
 144.36 531.20 moveto 153.57 531.20 lineto stroke
 148.96 531.20 moveto 148.96 156.40 lineto stroke
 148.96 156.40 moveto 167.96 156.40 lineto stroke
 227.84 457.51 moveto 223.23 448.29 lineto stroke
 227.84 457.51 moveto 232.44 448.29 lineto stroke
 223.23 448.29 moveto 232.44 448.29 lineto stroke
 227.84 448.29 moveto 227.84 436.78 lineto stroke
 227.84 436.78 moveto 283.11 436.78 lineto stroke
 283.11 436.78 moveto 283.11 431.02 lineto stroke
 227.84 457.51 moveto 223.23 448.29 lineto stroke
 227.84 457.51 moveto 232.44 448.29 lineto stroke
 223.23 448.29 moveto 232.44 448.29 lineto stroke
 227.84 448.29 moveto 227.84 436.78 lineto stroke
 227.84 436.78 moveto 180.63 436.78 lineto stroke
 180.63 436.78 moveto 180.63 431.02 lineto stroke
 374.07 547.89 moveto 369.47 538.68 lineto stroke
 374.07 547.89 moveto 378.68 538.68 lineto stroke
 369.47 538.68 moveto 378.68 538.68 lineto stroke
 374.07 538.68 moveto 374.07 470.17 lineto stroke
 374.07 470.17 moveto 247.41 470.17 lineto stroke
 148.96 540.41 moveto 144.36 531.20 lineto stroke
 148.96 540.41 moveto 153.57 531.20 lineto stroke
 144.36 531.20 moveto 153.57 531.20 lineto stroke
 148.96 531.20 moveto 148.96 469.60 lineto stroke
 148.96 469.60 moveto 170.84 469.60 lineto stroke
 456.98 749.40 moveto 447.76 744.79 lineto stroke
 456.98 749.40 moveto 447.76 754.00 lineto stroke
 447.76 754.00 moveto 447.76 744.79 lineto stroke
 447.76 749.40 moveto 434.52 749.40 lineto stroke
 456.98 721.19 moveto 447.76 716.58 lineto stroke
 456.98 721.19 moveto 447.76 725.79 lineto stroke
 447.76 725.79 moveto 447.76 716.58 lineto stroke
 447.76 721.19 moveto 417.83 721.19 lineto stroke
 295.77 746.52 moveto 304.98 741.91 lineto stroke
 295.77 746.52 moveto 304.98 751.13 lineto stroke
 304.98 751.13 moveto 304.98 741.91 lineto stroke
 304.98 746.52 moveto 344.13 746.52 lineto stroke
 150.11 742.49 moveto 159.33 737.88 lineto stroke
 150.11 742.49 moveto 159.33 747.10 lineto stroke
 159.33 747.10 moveto 159.33 737.88 lineto stroke
 159.33 742.49 moveto 188.11 742.49 lineto stroke
 150.11 716.01 moveto 159.33 711.40 lineto stroke
 150.11 716.01 moveto 159.33 720.61 lineto stroke
 159.33 720.61 moveto 159.33 711.40 lineto stroke
 159.33 716.01 moveto 198.48 716.01 lineto stroke
 277.35 717.16 moveto 286.56 712.55 lineto stroke
 277.35 717.16 moveto 286.56 721.76 lineto stroke
 286.56 721.76 moveto 286.56 712.55 lineto stroke
 286.56 717.16 moveto 356.22 717.16 lineto stroke
 123.05 688.37 moveto 118.45 679.16 lineto stroke
 123.05 688.37 moveto 127.66 679.16 lineto stroke
 118.45 679.16 moveto 127.66 679.16 lineto stroke
 123.05 679.16 moveto 123.05 607.19 lineto stroke
 123.05 607.19 moveto 123.05 607.19 lineto stroke
 123.05 607.19 moveto 123.05 560.56 lineto stroke
 148.96 540.41 moveto 144.36 531.20 lineto stroke
 148.96 540.41 moveto 153.57 531.20 lineto stroke
 144.36 531.20 moveto 153.57 531.20 lineto stroke
 148.96 531.20 moveto 148.96 368.27 lineto stroke
 148.96 368.27 moveto 170.26 368.27 lineto stroke
 374.07 547.89 moveto 369.47 538.68 lineto stroke
 374.07 547.89 moveto 378.68 538.68 lineto stroke
 369.47 538.68 moveto 378.68 538.68 lineto stroke
 374.07 538.68 moveto 374.07 340.06 lineto stroke
 374.07 340.06 moveto 223.23 340.06 lineto stroke
 148.96 540.41 moveto 144.36 531.20 lineto stroke
 148.96 540.41 moveto 153.57 531.20 lineto stroke
 144.36 531.20 moveto 153.57 531.20 lineto stroke
 148.96 531.20 moveto 148.96 340.63 lineto stroke
 148.96 340.63 moveto 169.11 340.63 lineto stroke
 148.96 540.41 moveto 144.36 531.20 lineto stroke
 148.96 540.41 moveto 153.57 531.20 lineto stroke
 144.36 531.20 moveto 153.57 531.20 lineto stroke
 148.96 531.20 moveto 148.96 314.15 lineto stroke
 148.96 314.15 moveto 169.11 314.15 lineto stroke
 374.07 547.89 moveto 369.47 538.68 lineto stroke
 374.07 547.89 moveto 378.68 538.68 lineto stroke
 369.47 538.68 moveto 378.68 538.68 lineto stroke
 374.07 538.68 moveto 374.07 387.84 lineto stroke
 374.07 387.84 moveto 231.29 387.84 lineto stroke
 148.96 540.41 moveto 144.36 531.20 lineto stroke
 148.96 540.41 moveto 153.57 531.20 lineto stroke
 144.36 531.20 moveto 153.57 531.20 lineto stroke
 148.96 531.20 moveto 148.96 389.57 lineto stroke
 148.96 389.57 moveto 170.26 389.57 lineto stroke
 386.74 568.04 moveto 386.74 596.83 lineto stroke
 374.07 547.89 moveto 369.47 538.68 lineto stroke
 374.07 547.89 moveto 378.68 538.68 lineto stroke
 369.47 538.68 moveto 378.68 538.68 lineto stroke
 374.07 538.68 moveto 374.07 496.65 lineto stroke
 374.07 496.65 moveto 230.72 496.65 lineto stroke
 307.86 566.32 moveto 287.14 566.32 lineto stroke
 148.96 540.41 moveto 144.36 531.20 lineto stroke
 148.96 540.41 moveto 153.57 531.20 lineto stroke
 144.36 531.20 moveto 153.57 531.20 lineto stroke
 148.96 531.20 moveto 148.96 497.23 lineto stroke
 148.96 497.23 moveto 171.42 497.23 lineto stroke
 215.17 506.44 moveto 215.17 523.71 lineto stroke
 215.17 523.71 moveto 215.17 523.71 lineto stroke
 215.17 523.71 moveto 215.17 549.62 lineto stroke
 123.05 688.37 moveto 118.45 679.16 lineto stroke
 123.05 688.37 moveto 127.66 679.16 lineto stroke
 118.45 679.16 moveto 127.66 679.16 lineto stroke
 123.05 679.16 moveto 123.05 654.98 lineto stroke
 123.05 654.98 moveto 65.48 654.98 lineto stroke
 65.48 654.98 moveto 65.48 630.80 lineto stroke
grestore
gsave
1.15 setlinewidth
0.00 0.00 0.00 setrgbcolor
 204.23 579.56 moveto 286.56 579.56 lineto stroke
 286.56 579.56 moveto 286.56 550.20 lineto stroke
 204.23 579.56 moveto 204.23 550.20 lineto stroke
 204.23 550.20 moveto 286.56 550.20 lineto stroke
 204.23 566.32 moveto 286.56 566.32 lineto stroke
 204.23 553.65 moveto 286.56 553.65 lineto stroke
 110.39 559.98 moveto 162.20 559.98 lineto stroke
 162.20 559.98 moveto 162.20 540.99 lineto stroke
 110.39 559.98 moveto 110.39 540.99 lineto stroke
 110.39 540.99 moveto 162.20 540.99 lineto stroke
 110.39 546.74 moveto 162.20 546.74 lineto stroke
 110.39 544.44 moveto 162.20 544.44 lineto stroke
 171.99 505.87 moveto 230.14 505.87 lineto stroke
 230.14 505.87 moveto 230.14 486.87 lineto stroke
 171.99 505.87 moveto 171.99 486.87 lineto stroke
 171.99 486.87 moveto 230.14 486.87 lineto stroke
 171.99 492.62 moveto 230.14 492.62 lineto stroke
 171.99 490.32 moveto 230.14 490.32 lineto stroke
 308.44 567.47 moveto 395.95 567.47 lineto stroke
 395.95 567.47 moveto 395.95 548.47 lineto stroke
 308.44 567.47 moveto 308.44 548.47 lineto stroke
 308.44 548.47 moveto 395.95 548.47 lineto stroke
 308.44 554.23 moveto 395.95 554.23 lineto stroke
 308.44 551.92 moveto 395.95 551.92 lineto stroke
 356.80 728.67 moveto 417.25 728.67 lineto stroke
 417.25 728.67 moveto 417.25 709.67 lineto stroke
 356.80 728.67 moveto 356.80 709.67 lineto stroke
 356.80 709.67 moveto 417.25 709.67 lineto stroke
 356.80 715.43 moveto 417.25 715.43 lineto stroke
 356.80 713.13 moveto 417.25 713.13 lineto stroke
 29.79 630.22 moveto 109.81 630.22 lineto stroke
 109.81 630.22 moveto 109.81 611.22 lineto stroke
 29.79 630.22 moveto 29.79 611.22 lineto stroke
 29.79 611.22 moveto 109.81 611.22 lineto stroke
 29.79 616.98 moveto 109.81 616.98 lineto stroke
 29.79 614.68 moveto 109.81 614.68 lineto stroke
 365.44 647.49 moveto 452.37 647.49 lineto stroke
 452.37 647.49 moveto 452.37 597.41 lineto stroke
 365.44 647.49 moveto 365.44 597.41 lineto stroke
 365.44 597.41 moveto 452.37 597.41 lineto stroke
 365.44 634.25 moveto 452.37 634.25 lineto stroke
 365.44 600.86 moveto 452.37 600.86 lineto stroke
 166.23 430.45 moveto 225.53 430.45 lineto stroke
 225.53 430.45 moveto 225.53 411.45 lineto stroke
 166.23 430.45 moveto 166.23 411.45 lineto stroke
 166.23 411.45 moveto 225.53 411.45 lineto stroke
 166.23 417.20 moveto 225.53 417.20 lineto stroke
 166.23 414.90 moveto 225.53 414.90 lineto stroke
 170.84 401.08 moveto 230.72 401.08 lineto stroke
 230.72 401.08 moveto 230.72 382.09 lineto stroke
 170.84 401.08 moveto 170.84 382.09 lineto stroke
 170.84 382.09 moveto 230.72 382.09 lineto stroke
 170.84 387.84 moveto 230.72 387.84 lineto stroke
 170.84 385.54 moveto 230.72 385.54 lineto stroke
 168.54 116.10 moveto 219.20 116.10 lineto stroke
 219.20 116.10 moveto 219.20 97.10 lineto stroke
 168.54 116.10 moveto 168.54 97.10 lineto stroke
 168.54 97.10 moveto 219.20 97.10 lineto stroke
 168.54 102.86 moveto 219.20 102.86 lineto stroke
 168.54 100.55 moveto 219.20 100.55 lineto stroke
 169.69 324.51 moveto 226.69 324.51 lineto stroke
 226.69 324.51 moveto 226.69 305.51 lineto stroke
 169.69 324.51 moveto 169.69 305.51 lineto stroke
 169.69 305.51 moveto 226.69 305.51 lineto stroke
 169.69 311.27 moveto 226.69 311.27 lineto stroke
 169.69 308.97 moveto 226.69 308.97 lineto stroke
 169.69 350.42 moveto 222.66 350.42 lineto stroke
 222.66 350.42 moveto 222.66 331.42 lineto stroke
 169.69 350.42 moveto 169.69 331.42 lineto stroke
 169.69 331.42 moveto 222.66 331.42 lineto stroke
 169.69 337.18 moveto 222.66 337.18 lineto stroke
 169.69 334.88 moveto 222.66 334.88 lineto stroke
 170.84 375.75 moveto 227.84 375.75 lineto stroke
 227.84 375.75 moveto 227.84 356.75 lineto stroke
 170.84 375.75 moveto 170.84 356.75 lineto stroke
 170.84 356.75 moveto 227.84 356.75 lineto stroke
 170.84 362.51 moveto 227.84 362.51 lineto stroke
 170.84 360.21 moveto 227.84 360.21 lineto stroke
 44.18 759.76 moveto 149.54 759.76 lineto stroke
 149.54 759.76 moveto 149.54 688.95 lineto stroke
 44.18 759.76 moveto 44.18 688.95 lineto stroke
 44.18 688.95 moveto 149.54 688.95 lineto stroke
 44.18 746.52 moveto 149.54 746.52 lineto stroke
 44.18 692.40 moveto 149.54 692.40 lineto stroke
 199.05 729.82 moveto 276.77 729.82 lineto stroke
 276.77 729.82 moveto 276.77 710.82 lineto stroke
 199.05 729.82 moveto 199.05 710.82 lineto stroke
 199.05 710.82 moveto 276.77 710.82 lineto stroke
 199.05 716.58 moveto 276.77 716.58 lineto stroke
 199.05 714.28 moveto 276.77 714.28 lineto stroke
 188.69 756.88 moveto 295.20 756.88 lineto stroke
 295.20 756.88 moveto 295.20 737.88 lineto stroke
 188.69 756.88 moveto 188.69 737.88 lineto stroke
 188.69 737.88 moveto 295.20 737.88 lineto stroke
 188.69 743.64 moveto 295.20 743.64 lineto stroke
 188.69 741.34 moveto 295.20 741.34 lineto stroke
 344.71 758.03 moveto 433.95 758.03 lineto stroke
 433.95 758.03 moveto 433.95 739.04 lineto stroke
 344.71 758.03 moveto 344.71 739.04 lineto stroke
 344.71 739.04 moveto 433.95 739.04 lineto stroke
 344.71 744.79 moveto 433.95 744.79 lineto stroke
 344.71 742.49 moveto 433.95 742.49 lineto stroke
 457.55 761.49 moveto 571.55 761.49 lineto stroke
 571.55 761.49 moveto 571.55 701.04 lineto stroke
 457.55 761.49 moveto 457.55 701.04 lineto stroke
 457.55 701.04 moveto 571.55 701.04 lineto stroke
 457.55 748.25 moveto 571.55 748.25 lineto stroke
 457.55 704.49 moveto 571.55 704.49 lineto stroke
 171.42 477.08 moveto 246.84 477.08 lineto stroke
 246.84 477.08 moveto 246.84 458.08 lineto stroke
 171.42 477.08 moveto 171.42 458.08 lineto stroke
 171.42 458.08 moveto 246.84 458.08 lineto stroke
 171.42 463.84 moveto 246.84 463.84 lineto stroke
 171.42 461.54 moveto 246.84 461.54 lineto stroke
 261.23 430.45 moveto 349.32 430.45 lineto stroke
 349.32 430.45 moveto 349.32 411.45 lineto stroke
 261.23 430.45 moveto 261.23 411.45 lineto stroke
 261.23 411.45 moveto 349.32 411.45 lineto stroke
 261.23 417.20 moveto 349.32 417.20 lineto stroke
 261.23 414.90 moveto 349.32 414.90 lineto stroke
 168.54 164.46 moveto 235.32 164.46 lineto stroke
 235.32 164.46 moveto 235.32 145.46 lineto stroke
 168.54 164.46 moveto 168.54 145.46 lineto stroke
 168.54 145.46 moveto 235.32 145.46 lineto stroke
 168.54 151.22 moveto 235.32 151.22 lineto stroke
 168.54 148.92 moveto 235.32 148.92 lineto stroke
 274.47 116.10 moveto 353.92 116.10 lineto stroke
 353.92 116.10 moveto 353.92 97.10 lineto stroke
 274.47 116.10 moveto 274.47 97.10 lineto stroke
 274.47 97.10 moveto 353.92 97.10 lineto stroke
 274.47 102.86 moveto 353.92 102.86 lineto stroke
 274.47 100.55 moveto 353.92 100.55 lineto stroke
 168.54 291.70 moveto 272.74 291.70 lineto stroke
 272.74 291.70 moveto 272.74 251.97 lineto stroke
 168.54 291.70 moveto 168.54 251.97 lineto stroke
 168.54 251.97 moveto 272.74 251.97 lineto stroke
 168.54 278.45 moveto 272.74 278.45 lineto stroke
 168.54 255.43 moveto 272.74 255.43 lineto stroke
 167.39 245.06 moveto 258.93 245.06 lineto stroke
 258.93 245.06 moveto 258.93 174.25 lineto stroke
 167.39 245.06 moveto 167.39 174.25 lineto stroke
 167.39 174.25 moveto 258.93 174.25 lineto stroke
 167.39 231.82 moveto 258.93 231.82 lineto stroke
 167.39 177.70 moveto 258.93 177.70 lineto stroke
 322.26 669.95 moveto 342.98 669.95 lineto stroke
 342.98 669.95 moveto 342.98 650.95 lineto stroke
 322.26 669.95 moveto 322.26 650.95 lineto stroke
 322.26 650.95 moveto 342.98 650.95 lineto stroke
 322.26 656.71 moveto 342.98 656.71 lineto stroke
 322.26 654.40 moveto 342.98 654.40 lineto stroke
 170.26 690.10 moveto 303.26 690.10 lineto stroke
 303.26 690.10 moveto 303.26 588.20 lineto stroke
 170.26 690.10 moveto 170.26 588.20 lineto stroke
 170.26 588.20 moveto 303.26 588.20 lineto stroke
 170.26 676.86 moveto 303.26 676.86 lineto stroke
 170.26 591.65 moveto 303.26 591.65 lineto stroke
grestore
 353.35 580.71 moveto (Interfaces) show
 389.62 588.77 moveto (0..N) show
 249.71 558.26 moveto (belongs_to) show
 290.02 570.35 moveto (0..N) show
 161.05 515.65 moveto (MulticastToROS) show
 218.05 541.56 moveto (1..1) show
 216.32 570.35 moveto (DCMulticastGroup) show
 206.54 557.68 moveto (MulticastAddress: string) show
 113.84 550.77 moveto (DFApplication) show
 175.45 496.65 moveto (DFMApplication) show
 311.89 558.26 moveto (DFMessagePassingNode) show
 360.25 719.46 moveto (EFD_Application) show
 33.24 621.01 moveto (GATHERERApplication) show
 388.46 638.28 moveto (InterfaceMap) show
 367.74 625.62 moveto (Peer: enum = 'ALL') show
 367.74 615.25 moveto (Label: string) show
 367.74 604.89 moveto (Protocol: enum = 'default') show
 169.69 421.23 moveto (L2PUApplication) show
 174.29 391.87 moveto (L2SVApplication) show
 171.99 106.89 moveto (PTApplication) show
 173.14 315.30 moveto (RoIBApplication) show
 173.14 341.21 moveto (SFIApplication) show
 174.29 366.54 moveto (SFOApplication) show
 53.39 750.55 moveto (RunControlApplicationBase) show
 46.48 737.88 moveto (ActionTimeout: s32 = '10') show
 46.48 727.52 moveto (ShortTimeout: s32 = '5') show
 46.48 717.16 moveto (ProbeInterval: s32 = '5') show
 46.48 706.79 moveto (FullStatisticsInterval: s32 = '60') show
 46.48 696.43 moveto (IfError: enum) show
 202.51 720.61 moveto (RunControlApplication) show
 192.14 747.67 moveto (RunControlTemplateApplication) show
 348.16 748.82 moveto (EFD_TemplateApplication) show
 479.43 752.28 moveto (EFD_BaseApplication) show
 459.85 739.61 moveto (sfi: list of string = 'localhost:7000') show
 459.85 729.25 moveto (sfo: list of string = 'localhost:7001') show
 459.85 718.88 moveto (StartIn: string = '/tmp/') show
 459.85 708.52 moveto (clearWD: bool = 'no') show
 174.87 467.87 moveto (L2PUApplicationBase) show
 264.68 421.23 moveto (L2PUTemplateApplication) show
 171.99 155.25 moveto (PTApplicationBase) show
 277.93 106.89 moveto (PTTemplateApplication) show
 171.99 282.48 moveto (LVL2ResultHandlerApplication) show
 170.84 269.82 moveto (storeSize: u32 = '20000') show
 170.84 259.46 moveto (subDetectorId: u32 = '0') show
 203.66 235.85 moveto (ROSE) show
 169.69 223.18 moveto (Id: u16 = '0') show
 169.69 212.82 moveto (runMode: enum = 'Internal') show
 169.69 202.46 moveto (subDetectorId: u8 = '0') show
 169.69 192.10 moveto (robDataSize: u32 = '256') show
 169.69 181.73 moveto (robs: list of u32) show
 325.71 660.74 moveto (ROS) show
 205.96 680.89 moveto (ReadoutApplication) show
 172.57 668.22 moveto (Trace: u32 = '0') show
 172.57 657.86 moveto (Package: u32 = '0') show
 172.57 647.49 moveto (QueueSize: u32 = '100') show
 172.57 637.13 moveto (QueueUnblockOffset: u32 = '90') show
 172.57 626.77 moveto (NumberOfRequestHandlers: u32 = '8') show
 172.57 616.41 moveto (RequestTimeOut: u32 = '1000000') show
 172.57 606.04 moveto (MonitoringScalingFactor: u32 = '10000') show
 172.57 595.68 moveto (Id: u16 = '0') show
showpage
