%!PS-Adobe-2.0 EPSF-2.0
%%Creator: OKS Library, <Igor.Soloviev@cern.ch>, CERN EP/ATD
%%Title: unknown
%%BoundingBox: 20 19 688 575
%%Pages: 1
%%DocumentFonts: Helvetica-Narrow
%%EndComments

% set image font
/Helvetica-Narrow findfont
4.49 scalefont
setfont

% draw in landscape mode
90 rotate  0 -595 translate

gsave
0.37 setlinewidth
0.00 0.00 0.00 setrgbcolor
 75.01 266.25 moveto 109.07 266.25 lineto stroke
 50.69 265.13 moveto 44.70 262.13 lineto stroke
 50.69 265.13 moveto 44.70 268.12 lineto stroke
 44.70 268.12 moveto 44.70 262.13 lineto stroke
 44.70 265.13 moveto 41.33 265.13 lineto stroke
 41.33 265.13 moveto 41.33 221.72 lineto stroke
 132.27 216.85 moveto 129.28 210.86 lineto stroke
 132.27 216.85 moveto 135.27 210.86 lineto stroke
 129.28 210.86 moveto 135.27 210.86 lineto stroke
 132.27 210.86 moveto 132.27 195.89 lineto stroke
 132.27 195.89 moveto 154.35 195.89 lineto stroke
 109.07 248.29 moveto 103.08 245.29 lineto stroke
 109.07 248.29 moveto 103.08 251.28 lineto stroke
 103.08 251.28 moveto 103.08 245.29 lineto stroke
 103.08 248.29 moveto 64.91 248.29 lineto stroke
 64.91 248.29 moveto 64.91 221.72 lineto stroke
 36.09 133.40 moveto 36.09 103.08 lineto stroke
 86.61 67.15 moveto 36.09 67.15 lineto stroke
 36.09 67.15 moveto 36.09 76.51 lineto stroke
 39.09 195.14 moveto 36.09 189.16 lineto stroke
 39.09 195.14 moveto 42.08 189.16 lineto stroke
 36.09 189.16 moveto 42.08 189.16 lineto stroke
 39.09 189.16 moveto 39.09 183.54 lineto stroke
 39.09 183.54 moveto 39.09 183.54 lineto stroke
 39.09 183.54 moveto 39.09 173.44 lineto stroke
 225.83 167.08 moveto 222.84 161.09 lineto stroke
 225.83 167.08 moveto 228.83 161.09 lineto stroke
 222.84 161.09 moveto 228.83 161.09 lineto stroke
 225.83 161.09 moveto 225.83 132.65 lineto stroke
 225.83 132.65 moveto 499.78 132.65 lineto stroke
 499.78 132.65 moveto 499.78 101.58 lineto stroke
 225.83 167.08 moveto 222.84 161.09 lineto stroke
 225.83 167.08 moveto 228.83 161.09 lineto stroke
 222.84 161.09 moveto 228.83 161.09 lineto stroke
 225.83 161.09 moveto 225.83 132.65 lineto stroke
 225.83 132.65 moveto 219.84 132.65 lineto stroke
 219.84 132.65 moveto 219.84 122.17 lineto stroke
 225.83 167.08 moveto 222.84 161.09 lineto stroke
 225.83 167.08 moveto 228.83 161.09 lineto stroke
 222.84 161.09 moveto 228.83 161.09 lineto stroke
 225.83 161.09 moveto 225.83 132.65 lineto stroke
 225.83 132.65 moveto 107.57 132.65 lineto stroke
 107.57 132.65 moveto 107.57 101.58 lineto stroke
 225.83 167.08 moveto 222.84 161.09 lineto stroke
 225.83 167.08 moveto 228.83 161.09 lineto stroke
 222.84 161.09 moveto 228.83 161.09 lineto stroke
 225.83 161.09 moveto 225.83 132.65 lineto stroke
 225.83 132.65 moveto 249.41 132.65 lineto stroke
 249.41 132.65 moveto 249.41 100.84 lineto stroke
 225.83 167.08 moveto 222.84 161.09 lineto stroke
 225.83 167.08 moveto 228.83 161.09 lineto stroke
 222.84 161.09 moveto 228.83 161.09 lineto stroke
 225.83 161.09 moveto 225.83 132.65 lineto stroke
 225.83 132.65 moveto 149.49 132.65 lineto stroke
 149.49 132.65 moveto 149.49 122.54 lineto stroke
 225.83 167.08 moveto 222.84 161.09 lineto stroke
 225.83 167.08 moveto 228.83 161.09 lineto stroke
 222.84 161.09 moveto 228.83 161.09 lineto stroke
 225.83 161.09 moveto 225.83 132.65 lineto stroke
 225.83 132.65 moveto 322.01 132.65 lineto stroke
 322.01 132.65 moveto 322.01 101.21 lineto stroke
 225.83 167.08 moveto 222.84 161.09 lineto stroke
 225.83 167.08 moveto 228.83 161.09 lineto stroke
 222.84 161.09 moveto 228.83 161.09 lineto stroke
 225.83 161.09 moveto 225.83 132.65 lineto stroke
 225.83 132.65 moveto 283.84 132.65 lineto stroke
 283.84 132.65 moveto 283.84 121.79 lineto stroke
 225.83 167.08 moveto 222.84 161.09 lineto stroke
 225.83 167.08 moveto 228.83 161.09 lineto stroke
 222.84 161.09 moveto 228.83 161.09 lineto stroke
 225.83 161.09 moveto 225.83 132.65 lineto stroke
 225.83 132.65 moveto 346.34 132.65 lineto stroke
 346.34 132.65 moveto 346.34 122.17 lineto stroke
 225.83 167.08 moveto 222.84 161.09 lineto stroke
 225.83 167.08 moveto 228.83 161.09 lineto stroke
 222.84 161.09 moveto 228.83 161.09 lineto stroke
 225.83 161.09 moveto 225.83 132.65 lineto stroke
 225.83 132.65 moveto 437.65 132.65 lineto stroke
 437.65 132.65 moveto 437.65 122.17 lineto stroke
 225.83 167.08 moveto 222.84 161.09 lineto stroke
 225.83 167.08 moveto 228.83 161.09 lineto stroke
 222.84 161.09 moveto 228.83 161.09 lineto stroke
 225.83 161.09 moveto 225.83 132.65 lineto stroke
 225.83 132.65 moveto 415.20 132.65 lineto stroke
 415.20 132.65 moveto 415.20 101.58 lineto stroke
 225.83 167.08 moveto 222.84 161.09 lineto stroke
 225.83 167.08 moveto 228.83 161.09 lineto stroke
 222.84 161.09 moveto 228.83 161.09 lineto stroke
 225.83 161.09 moveto 225.83 132.65 lineto stroke
 225.83 132.65 moveto 189.16 132.65 lineto stroke
 189.16 132.65 moveto 189.16 101.21 lineto stroke
 356.44 299.18 moveto 353.45 293.20 lineto stroke
 356.44 299.18 moveto 359.44 293.20 lineto stroke
 353.45 293.20 moveto 359.44 293.20 lineto stroke
 356.44 293.20 moveto 356.44 283.09 lineto stroke
 356.44 283.09 moveto 286.09 283.09 lineto stroke
 286.09 283.09 moveto 286.09 277.10 lineto stroke
 455.99 258.39 moveto 453.00 252.40 lineto stroke
 455.99 258.39 moveto 458.99 252.40 lineto stroke
 453.00 252.40 moveto 458.99 252.40 lineto stroke
 455.99 252.40 moveto 455.99 237.43 lineto stroke
 237.81 323.51 moveto 243.80 320.52 lineto stroke
 237.81 323.51 moveto 243.80 326.50 lineto stroke
 243.80 326.50 moveto 243.80 320.52 lineto stroke
 243.80 323.51 moveto 277.85 323.51 lineto stroke
 277.85 323.51 moveto 277.85 318.64 lineto stroke
 632.63 299.18 moveto 632.63 271.49 lineto stroke
 356.44 299.18 moveto 353.45 293.20 lineto stroke
 356.44 299.18 moveto 359.44 293.20 lineto stroke
 353.45 293.20 moveto 359.44 293.20 lineto stroke
 356.44 293.20 moveto 356.44 283.09 lineto stroke
 356.44 283.09 moveto 367.30 283.09 lineto stroke
 367.30 283.09 moveto 367.30 277.85 lineto stroke
 237.81 323.51 moveto 243.80 320.52 lineto stroke
 237.81 323.51 moveto 243.80 326.50 lineto stroke
 243.80 326.50 moveto 243.80 320.52 lineto stroke
 243.80 323.51 moveto 339.60 323.51 lineto stroke
 339.60 323.51 moveto 339.60 319.02 lineto stroke
 237.81 323.51 moveto 243.80 320.52 lineto stroke
 237.81 323.51 moveto 243.80 326.50 lineto stroke
 243.80 326.50 moveto 243.80 320.52 lineto stroke
 243.80 323.51 moveto 451.87 323.51 lineto stroke
 451.87 323.51 moveto 451.87 318.64 lineto stroke
 237.81 323.51 moveto 243.80 320.52 lineto stroke
 237.81 323.51 moveto 243.80 326.50 lineto stroke
 243.80 326.50 moveto 243.80 320.52 lineto stroke
 243.80 323.51 moveto 636.75 323.51 lineto stroke
 636.75 323.51 moveto 636.75 319.02 lineto stroke
 225.83 509.51 moveto 231.82 506.51 lineto stroke
 225.83 509.51 moveto 231.82 512.50 lineto stroke
 231.82 512.50 moveto 231.82 506.51 lineto stroke
 231.82 509.51 moveto 481.44 509.51 lineto stroke
 481.44 509.51 moveto 481.44 506.14 lineto stroke
 278.98 472.08 moveto 278.98 451.50 lineto stroke
 225.83 509.51 moveto 231.82 506.51 lineto stroke
 225.83 509.51 moveto 231.82 512.50 lineto stroke
 231.82 512.50 moveto 231.82 506.51 lineto stroke
 231.82 509.51 moveto 257.64 509.51 lineto stroke
 257.64 509.51 moveto 257.64 505.39 lineto stroke
 225.83 509.51 moveto 231.82 506.51 lineto stroke
 225.83 509.51 moveto 231.82 512.50 lineto stroke
 231.82 512.50 moveto 231.82 506.51 lineto stroke
 231.82 509.51 moveto 319.39 509.51 lineto stroke
 319.39 509.51 moveto 319.39 505.77 lineto stroke
 237.81 323.51 moveto 243.80 320.52 lineto stroke
 237.81 323.51 moveto 243.80 326.50 lineto stroke
 243.80 326.50 moveto 243.80 320.52 lineto stroke
 243.80 323.51 moveto 539.07 323.51 lineto stroke
 539.07 323.51 moveto 539.07 319.02 lineto stroke
 225.83 509.51 moveto 231.82 506.51 lineto stroke
 225.83 509.51 moveto 231.82 512.50 lineto stroke
 231.82 512.50 moveto 231.82 506.51 lineto stroke
 231.82 509.51 moveto 369.17 509.51 lineto stroke
 369.17 509.51 moveto 369.17 505.77 lineto stroke
 154.35 185.04 moveto 150.98 182.80 lineto stroke
 154.35 185.04 moveto 150.98 187.29 lineto stroke
 150.98 182.80 moveto 147.62 185.04 lineto stroke
 150.98 187.29 moveto 147.62 185.04 lineto stroke
 147.62 185.04 moveto 66.78 185.04 lineto stroke
 66.78 185.04 moveto 66.78 195.14 lineto stroke
 112.06 468.34 moveto 109.82 464.97 lineto stroke
 112.06 468.34 moveto 114.31 464.97 lineto stroke
 109.82 464.97 moveto 112.06 461.60 lineto stroke
 114.31 464.97 moveto 112.06 461.60 lineto stroke
 112.06 461.60 moveto 112.06 455.24 lineto stroke
 112.06 455.24 moveto 167.08 455.24 lineto stroke
 167.08 455.24 moveto 167.08 200.38 lineto stroke
 29.36 221.72 moveto 29.36 283.84 lineto stroke
 29.36 283.84 moveto 61.92 283.84 lineto stroke
 61.92 283.84 moveto 61.92 339.60 lineto stroke
 72.77 468.34 moveto 72.77 372.91 lineto stroke
 134.14 484.81 moveto 190.28 484.81 lineto stroke
 190.28 484.81 moveto 190.28 328.00 lineto stroke
 134.14 509.13 moveto 190.28 509.13 lineto stroke
 237.06 563.77 moveto 184.67 563.77 lineto stroke
 112.06 535.33 moveto 109.07 541.32 lineto stroke
 112.06 535.33 moveto 115.06 541.32 lineto stroke
 109.07 541.32 moveto 115.06 541.32 lineto stroke
 112.06 541.32 moveto 112.06 551.80 lineto stroke
 112.06 551.80 moveto 174.19 551.80 lineto stroke
 174.19 551.80 moveto 174.19 556.29 lineto stroke
 112.06 535.33 moveto 109.07 541.32 lineto stroke
 112.06 535.33 moveto 115.06 541.32 lineto stroke
 109.07 541.32 moveto 115.06 541.32 lineto stroke
 112.06 541.32 moveto 112.06 551.80 lineto stroke
 112.06 551.80 moveto 130.03 551.80 lineto stroke
 130.03 551.80 moveto 130.03 555.54 lineto stroke
 75.39 535.33 moveto 75.39 551.05 lineto stroke
 75.39 551.05 moveto 75.39 551.05 lineto stroke
 75.39 551.05 moveto 75.39 553.29 lineto stroke
 23.74 173.06 moveto 85.49 173.06 lineto stroke
 85.49 173.06 moveto 85.49 133.77 lineto stroke
 23.74 173.06 moveto 23.74 133.77 lineto stroke
 23.74 133.77 moveto 85.49 133.77 lineto stroke
grestore
gsave
0.75 setlinewidth
0.00 0.00 0.00 setrgbcolor
 47.32 534.96 moveto 133.77 534.96 lineto stroke
 133.77 534.96 moveto 133.77 468.72 lineto stroke
 47.32 534.96 moveto 47.32 468.72 lineto stroke
 47.32 468.72 moveto 133.77 468.72 lineto stroke
 47.32 526.35 moveto 133.77 526.35 lineto stroke
 47.32 470.96 moveto 133.77 470.96 lineto stroke
 57.80 572.75 moveto 98.96 572.75 lineto stroke
 98.96 572.75 moveto 98.96 553.67 lineto stroke
 57.80 572.75 moveto 57.80 553.67 lineto stroke
 57.80 553.67 moveto 98.96 553.67 lineto stroke
 57.80 564.15 moveto 98.96 564.15 lineto stroke
 57.80 555.91 moveto 98.96 555.91 lineto stroke
 126.66 568.26 moveto 140.13 568.26 lineto stroke
 140.13 568.26 moveto 140.13 555.91 lineto stroke
 126.66 568.26 moveto 126.66 555.91 lineto stroke
 126.66 555.91 moveto 140.13 555.91 lineto stroke
 126.66 559.66 moveto 140.13 559.66 lineto stroke
 126.66 558.16 moveto 140.13 558.16 lineto stroke
 170.82 569.01 moveto 184.29 569.01 lineto stroke
 184.29 569.01 moveto 184.29 556.66 lineto stroke
 170.82 569.01 moveto 170.82 556.66 lineto stroke
 170.82 556.66 moveto 184.29 556.66 lineto stroke
 170.82 560.40 moveto 184.29 560.40 lineto stroke
 170.82 558.91 moveto 184.29 558.91 lineto stroke
 237.43 573.13 moveto 310.79 573.13 lineto stroke
 310.79 573.13 moveto 310.79 527.10 lineto stroke
 237.43 573.13 moveto 237.43 527.10 lineto stroke
 237.43 527.10 moveto 310.79 527.10 lineto stroke
 237.43 564.52 moveto 310.79 564.52 lineto stroke
 237.43 529.34 moveto 310.79 529.34 lineto stroke
 190.65 513.62 moveto 225.46 513.62 lineto stroke
 225.46 513.62 moveto 225.46 501.27 lineto stroke
 190.65 513.62 moveto 190.65 501.27 lineto stroke
 190.65 501.27 moveto 225.46 501.27 lineto stroke
 190.65 505.02 moveto 225.46 505.02 lineto stroke
 190.65 503.52 moveto 225.46 503.52 lineto stroke
 174.94 327.63 moveto 237.43 327.63 lineto stroke
 237.43 327.63 moveto 237.43 308.54 lineto stroke
 174.94 327.63 moveto 174.94 308.54 lineto stroke
 174.94 308.54 moveto 237.43 308.54 lineto stroke
 174.94 319.02 moveto 237.43 319.02 lineto stroke
 174.94 310.79 moveto 237.43 310.79 lineto stroke
 30.85 372.54 moveto 86.61 372.54 lineto stroke
 86.61 372.54 moveto 86.61 339.98 lineto stroke
 30.85 372.54 moveto 30.85 339.98 lineto stroke
 30.85 339.98 moveto 86.61 339.98 lineto stroke
 30.85 363.93 moveto 86.61 363.93 lineto stroke
 30.85 342.22 moveto 86.61 342.22 lineto stroke
 24.12 221.34 moveto 93.35 221.34 lineto stroke
 93.35 221.34 moveto 93.35 195.52 lineto stroke
 24.12 221.34 moveto 24.12 195.52 lineto stroke
 24.12 195.52 moveto 93.35 195.52 lineto stroke
 24.12 212.73 moveto 93.35 212.73 lineto stroke
 24.12 197.76 moveto 93.35 197.76 lineto stroke
 154.73 200.01 moveto 249.78 200.01 lineto stroke
 249.78 200.01 moveto 249.78 167.45 lineto stroke
 154.73 200.01 moveto 154.73 167.45 lineto stroke
 154.73 167.45 moveto 249.78 167.45 lineto stroke
 154.73 191.40 moveto 249.78 191.40 lineto stroke
 154.73 169.70 moveto 249.78 169.70 lineto stroke
 345.59 505.39 moveto 440.27 505.39 lineto stroke
 440.27 505.39 moveto 440.27 459.36 lineto stroke
 345.59 505.39 moveto 345.59 459.36 lineto stroke
 345.59 459.36 moveto 440.27 459.36 lineto stroke
 345.59 496.78 moveto 440.27 496.78 lineto stroke
 345.59 461.60 moveto 440.27 461.60 lineto stroke
 514.00 318.64 moveto 615.04 318.64 lineto stroke
 615.04 318.64 moveto 615.04 286.09 lineto stroke
 514.00 318.64 moveto 514.00 286.09 lineto stroke
 514.00 286.09 moveto 615.04 286.09 lineto stroke
 514.00 310.04 moveto 615.04 310.04 lineto stroke
 514.00 288.33 moveto 615.04 288.33 lineto stroke
 312.66 505.39 moveto 339.60 505.39 lineto stroke
 339.60 505.39 moveto 339.60 493.04 lineto stroke
 312.66 505.39 moveto 312.66 493.04 lineto stroke
 312.66 493.04 moveto 339.60 493.04 lineto stroke
 312.66 496.78 moveto 339.60 496.78 lineto stroke
 312.66 495.29 moveto 339.60 495.29 lineto stroke
 241.55 505.02 moveto 307.04 505.02 lineto stroke
 307.04 505.02 moveto 307.04 472.46 lineto stroke
 241.55 505.02 moveto 241.55 472.46 lineto stroke
 241.55 472.46 moveto 307.04 472.46 lineto stroke
 241.55 496.41 moveto 307.04 496.41 lineto stroke
 241.55 474.70 moveto 307.04 474.70 lineto stroke
 244.17 451.13 moveto 321.64 451.13 lineto stroke
 321.64 451.13 moveto 321.64 418.57 lineto stroke
 244.17 451.13 moveto 244.17 418.57 lineto stroke
 244.17 418.57 moveto 321.64 418.57 lineto stroke
 244.17 442.52 moveto 321.64 442.52 lineto stroke
 244.17 420.81 moveto 321.64 420.81 lineto stroke
 463.48 505.77 moveto 536.08 505.77 lineto stroke
 536.08 505.77 moveto 536.08 453.00 lineto stroke
 463.48 505.77 moveto 463.48 453.00 lineto stroke
 463.48 453.00 moveto 536.08 453.00 lineto stroke
 463.48 497.16 moveto 536.08 497.16 lineto stroke
 463.48 455.24 moveto 536.08 455.24 lineto stroke
 620.28 318.64 moveto 686.52 318.64 lineto stroke
 686.52 318.64 moveto 686.52 299.56 lineto stroke
 620.28 318.64 moveto 620.28 299.56 lineto stroke
 620.28 299.56 moveto 686.52 299.56 lineto stroke
 620.28 310.04 moveto 686.52 310.04 lineto stroke
 620.28 301.80 moveto 686.52 301.80 lineto stroke
 351.95 277.48 moveto 413.33 277.48 lineto stroke
 413.33 277.48 moveto 413.33 265.13 lineto stroke
 351.95 277.48 moveto 351.95 265.13 lineto stroke
 351.95 265.13 moveto 413.33 265.13 lineto stroke
 351.95 268.87 moveto 413.33 268.87 lineto stroke
 351.95 267.37 moveto 413.33 267.37 lineto stroke
 424.18 318.27 moveto 508.01 318.27 lineto stroke
 508.01 318.27 moveto 508.01 258.77 lineto stroke
 424.18 318.27 moveto 424.18 258.77 lineto stroke
 424.18 258.77 moveto 508.01 258.77 lineto stroke
 424.18 309.66 moveto 508.01 309.66 lineto stroke
 424.18 261.01 moveto 508.01 261.01 lineto stroke
 288.33 318.64 moveto 415.57 318.64 lineto stroke
 415.57 318.64 moveto 415.57 299.56 lineto stroke
 288.33 318.64 moveto 288.33 299.56 lineto stroke
 288.33 299.56 moveto 415.57 299.56 lineto stroke
 288.33 310.04 moveto 415.57 310.04 lineto stroke
 288.33 301.80 moveto 415.57 301.80 lineto stroke
 617.29 271.12 moveto 678.66 271.12 lineto stroke
 678.66 271.12 moveto 678.66 238.56 lineto stroke
 617.29 271.12 moveto 617.29 238.56 lineto stroke
 617.29 238.56 moveto 678.66 238.56 lineto stroke
 617.29 262.51 moveto 678.66 262.51 lineto stroke
 617.29 240.80 moveto 678.66 240.80 lineto stroke
 250.91 318.27 moveto 281.22 318.27 lineto stroke
 281.22 318.27 moveto 281.22 305.92 lineto stroke
 250.91 318.27 moveto 250.91 305.92 lineto stroke
 250.91 305.92 moveto 281.22 305.92 lineto stroke
 250.91 309.66 moveto 281.22 309.66 lineto stroke
 250.91 308.17 moveto 281.22 308.17 lineto stroke
 438.78 237.06 moveto 508.39 237.06 lineto stroke
 508.39 237.06 moveto 508.39 204.50 lineto stroke
 438.78 237.06 moveto 438.78 204.50 lineto stroke
 438.78 204.50 moveto 508.39 204.50 lineto stroke
 438.78 228.45 moveto 508.39 228.45 lineto stroke
 438.78 206.75 moveto 508.39 206.75 lineto stroke
 268.12 276.73 moveto 341.10 276.73 lineto stroke
 341.10 276.73 moveto 341.10 237.43 lineto stroke
 268.12 276.73 moveto 268.12 237.43 lineto stroke
 268.12 237.43 moveto 341.10 237.43 lineto stroke
 268.12 268.12 moveto 341.10 268.12 lineto stroke
 268.12 239.68 moveto 341.10 239.68 lineto stroke
 173.06 100.84 moveto 231.07 100.84 lineto stroke
 231.07 100.84 moveto 231.07 81.75 lineto stroke
 173.06 100.84 moveto 173.06 81.75 lineto stroke
 173.06 81.75 moveto 231.07 81.75 lineto stroke
 173.06 92.23 moveto 231.07 92.23 lineto stroke
 173.06 84.00 moveto 231.07 84.00 lineto stroke
 386.76 101.21 moveto 463.48 101.21 lineto stroke
 463.48 101.21 moveto 463.48 28.23 lineto stroke
 386.76 101.21 moveto 386.76 28.23 lineto stroke
 386.76 28.23 moveto 463.48 28.23 lineto stroke
 386.76 92.60 moveto 463.48 92.60 lineto stroke
 386.76 30.48 moveto 463.48 30.48 lineto stroke
 418.19 121.79 moveto 496.04 121.79 lineto stroke
 496.04 121.79 moveto 496.04 109.44 lineto stroke
 418.19 121.79 moveto 418.19 109.44 lineto stroke
 418.19 109.44 moveto 496.04 109.44 lineto stroke
 418.19 113.19 moveto 496.04 113.19 lineto stroke
 418.19 111.69 moveto 496.04 111.69 lineto stroke
 324.26 121.79 moveto 412.58 121.79 lineto stroke
 412.58 121.79 moveto 412.58 109.44 lineto stroke
 324.26 121.79 moveto 324.26 109.44 lineto stroke
 324.26 109.44 moveto 412.58 109.44 lineto stroke
 324.26 113.19 moveto 412.58 113.19 lineto stroke
 324.26 111.69 moveto 412.58 111.69 lineto stroke
 254.28 121.42 moveto 319.77 121.42 lineto stroke
 319.77 121.42 moveto 319.77 109.07 lineto stroke
 254.28 121.42 moveto 254.28 109.07 lineto stroke
 254.28 109.07 moveto 319.77 109.07 lineto stroke
 254.28 112.81 moveto 319.77 112.81 lineto stroke
 254.28 111.31 moveto 319.77 111.31 lineto stroke
 308.54 100.84 moveto 362.81 100.84 lineto stroke
 362.81 100.84 moveto 362.81 75.01 lineto stroke
 308.54 100.84 moveto 308.54 75.01 lineto stroke
 308.54 75.01 moveto 362.81 75.01 lineto stroke
 308.54 92.23 moveto 362.81 92.23 lineto stroke
 308.54 77.26 moveto 362.81 77.26 lineto stroke
 127.03 122.17 moveto 185.04 122.17 lineto stroke
 185.04 122.17 moveto 185.04 109.82 lineto stroke
 127.03 122.17 moveto 127.03 109.82 lineto stroke
 127.03 109.82 moveto 185.04 109.82 lineto stroke
 127.03 113.56 moveto 185.04 113.56 lineto stroke
 127.03 112.06 moveto 185.04 112.06 lineto stroke
 234.44 100.46 moveto 299.18 100.46 lineto stroke
 299.18 100.46 moveto 299.18 81.38 lineto stroke
 234.44 100.46 moveto 234.44 81.38 lineto stroke
 234.44 81.38 moveto 299.18 81.38 lineto stroke
 234.44 91.85 moveto 299.18 91.85 lineto stroke
 234.44 83.62 moveto 299.18 83.62 lineto stroke
 86.99 101.21 moveto 169.32 101.21 lineto stroke
 169.32 101.21 moveto 169.32 21.50 lineto stroke
 86.99 101.21 moveto 86.99 21.50 lineto stroke
 86.99 21.50 moveto 169.32 21.50 lineto stroke
 86.99 92.60 moveto 169.32 92.60 lineto stroke
 86.99 23.74 moveto 169.32 23.74 lineto stroke
 195.52 121.79 moveto 245.67 121.79 lineto stroke
 245.67 121.79 moveto 245.67 109.44 lineto stroke
 195.52 121.79 moveto 195.52 109.44 lineto stroke
 195.52 109.44 moveto 245.67 109.44 lineto stroke
 195.52 113.19 moveto 245.67 113.19 lineto stroke
 195.52 111.69 moveto 245.67 111.69 lineto stroke
 474.70 101.21 moveto 547.68 101.21 lineto stroke
 547.68 101.21 moveto 547.68 75.39 lineto stroke
 474.70 101.21 moveto 474.70 75.39 lineto stroke
 474.70 75.39 moveto 547.68 75.39 lineto stroke
 474.70 92.60 moveto 547.68 92.60 lineto stroke
 474.70 77.63 moveto 547.68 77.63 lineto stroke
 23.74 164.46 moveto 85.49 164.46 lineto stroke
 23.74 136.01 moveto 85.49 136.01 lineto stroke
 23.74 102.71 moveto 73.52 102.71 lineto stroke
 73.52 102.71 moveto 73.52 76.88 lineto stroke
 23.74 102.71 moveto 23.74 76.88 lineto stroke
 23.74 76.88 moveto 73.52 76.88 lineto stroke
 23.74 94.10 moveto 73.52 94.10 lineto stroke
 23.74 79.13 moveto 73.52 79.13 lineto stroke
 109.44 276.73 moveto 155.85 276.73 lineto stroke
 155.85 276.73 moveto 155.85 217.23 lineto stroke
 109.44 276.73 moveto 109.44 217.23 lineto stroke
 109.44 217.23 moveto 155.85 217.23 lineto stroke
 109.44 268.12 moveto 155.85 268.12 lineto stroke
 109.44 219.47 moveto 155.85 219.47 lineto stroke
 51.06 270.74 moveto 74.64 270.74 lineto stroke
 74.64 270.74 moveto 74.64 258.39 lineto stroke
 51.06 270.74 moveto 51.06 258.39 lineto stroke
 51.06 258.39 moveto 74.64 258.39 lineto stroke
 51.06 262.13 moveto 74.64 262.13 lineto stroke
 51.06 260.64 moveto 74.64 260.64 lineto stroke
grestore
 80.25 268.87 moveto (HW_Object) show
 100.09 261.01 moveto (0..1) show
 37.59 116.93 moveto (ExpertParameters) show
 26.36 105.70 moveto (0..N) show
 43.58 61.92 moveto (ExpertParameters) show
 37.96 71.27 moveto (0..N) show
 634.13 284.21 moveto (MessageLossEmulations) show
 623.65 274.11 moveto (0..1) show
 280.47 460.48 moveto (EventStorageConfiguration) show
 269.99 454.12 moveto (0..1) show
 95.97 179.80 moveto (InputChannels) show
 68.65 189.91 moveto (0..N) show
 123.29 457.86 moveto (ReadoutModule) show
 157.35 203.00 moveto (0..N) show
 63.41 286.46 moveto (MemoryConfiguration) show
 63.79 334.36 moveto (0..1) show
 74.27 419.32 moveto (MemoryConfiguration) show
 63.79 375.53 moveto (1..1) show
 155.10 487.43 moveto (Trigger) show
 180.55 330.62 moveto (0..N) show
 146.87 511.75 moveto (ReadoutOutput) show
 181.30 503.89 moveto (0..1) show
 193.65 558.53 moveto (ConnectsToROS) show
 186.54 566.39 moveto (1..1) show
 56.30 545.81 moveto (Detector) show
 77.26 548.05 moveto (1..1) show
 70.52 528.97 moveto (ReadoutApplication) show
 48.82 520.73 moveto (Trace: u32 = '0') show
 48.82 514.00 moveto (Package: u32 = '0') show
 48.82 507.26 moveto (QueueSize: u32 = '100') show
 48.82 500.53 moveto (QueueUnblockOffset: u32 = '90') show
 48.82 493.79 moveto (NumberOfRequestHandlers: u32 = '8') show
 48.82 487.05 moveto (RequestTimeOut: u32 = '1000000') show
 48.82 480.32 moveto (MonitoringScalingFactor: u32 = '10000') show
 48.82 473.58 moveto (Id: u16 = '0') show
 69.77 566.77 moveto (Detector) show
 59.30 558.53 moveto (LogicalId: u8 = '0') show
 128.90 562.28 moveto (RCD) show
 173.06 563.02 moveto (ROS) show
 261.76 567.14 moveto (ROSTestDC) show
 238.93 558.91 moveto (L2RequestFraction: float = '6.') show
 238.93 552.17 moveto (EBRequestFraction: float = '2.') show
 238.93 545.43 moveto (DeleteGrouping: u32 = '100') show
 238.93 538.70 moveto (ROIDistribution: list of u32 = '100') show
 238.93 531.96 moveto (TestGarbageCollection: bool = '0') show
 192.90 507.64 moveto (ReadoutOutput) show
 190.65 321.64 moveto (ReadoutTrigger) show
 176.43 313.41 moveto (DeleteGrouping: u32 = '100') show
 45.82 366.55 moveto (MemoryPool) show
 32.35 358.31 moveto (Type: enum = 'MALLOC') show
 32.35 351.58 moveto (NumberOfPages: u32) show
 32.35 344.84 moveto (PageSize: u32 = '4096') show
 45.07 215.35 moveto (InputChannel) show
 25.61 207.12 moveto (Id: u32 = '0') show
 25.61 200.38 moveto (ROLPhysicalAddress: u32 = '0') show
 186.16 194.02 moveto (ReadoutModule) show
 156.22 185.79 moveto (ByteSwapping: bool = 'false') show
 156.22 179.05 moveto (PhysicalAddress: u32 = '0') show
 156.22 172.32 moveto (InputFragmentType: enum = 'RODFragment') show
 380.39 499.40 moveto (CircDataOut) show
 347.09 491.17 moveto (OutputCircName: string = '/tmp/RCDdefCirc') show
 347.09 484.43 moveto (SamplingGap: u32 = '1') show
 347.09 477.70 moveto (OutputDelay: u32 = '0') show
 347.09 470.96 moveto (BufferSize: u32 = '0') show
 347.09 464.22 moveto (ThrowIfFull: bool = 'false') show
 543.94 312.66 moveto (DataDrivenTriggerIn) show
 515.50 304.42 moveto (QueueSize: u32 = '200') show
 515.50 297.69 moveto (QueueUnblockOffset: u32 = '1') show
 515.50 290.95 moveto (RequestType: enum = 'AllRequestWithRelease') show
 314.90 499.40 moveto (DcDataOut) show
 256.52 499.03 moveto (EmulatedDataOut) show
 243.05 490.80 moveto (OutputDelay: u32 = '0') show
 243.05 484.06 moveto (SamplingGap: u32 = '0') show
 243.05 477.32 moveto (FormattedOutput: bool = 'true') show
 269.24 445.14 moveto (EventStorage) show
 245.67 436.90 moveto (DirectoryToWrite: string = '.') show
 245.67 430.17 moveto (MaxEventsPerFile: u32 = '0') show
 245.67 423.43 moveto (MaxMegaBytesPerFile: u32 = '500') show
 487.05 499.78 moveto (TCPDataOut) show
 464.97 491.54 moveto (DestinationNode: string) show
 464.97 484.81 moveto (DestinationPort: u32 = '11000') show
 464.97 478.07 moveto (SamplingGap: u32 = '1') show
 464.97 471.34 moveto (OutputDelay: u32 = '0') show
 464.97 464.60 moveto (TCPBufferSize: u32 = '32768') show
 464.97 457.86 moveto (ThrowIfUnavailable: bool = 'false') show
 641.61 312.66 moveto (DcTriggerIn) show
 621.78 304.42 moveto (ClearLossThreshold: u32 = '1') show
 354.20 271.49 moveto (EmulatedHardwareTriggerIn) show
 447.76 312.28 moveto (EmulatedTriggerIn) show
 425.68 304.05 moveto (L2RequestFraction: float = '6.') show
 425.68 297.31 moveto (EBRequestFraction: float = '2.') show
 425.68 290.58 moveto (InputDelay: u32 = '0') show
 425.68 283.84 moveto (ROIDistribution: list of u32 = '100') show
 425.68 277.10 moveto (ClearLossThreshold: u32 = '0') show
 425.68 270.37 moveto (TestGarbageCollection: bool = '0') show
 425.68 263.63 moveto (DeltaNumberOfLostClears: u32 = '100') show
 332.87 312.66 moveto (HardwareTriggerIn) show
 289.83 304.42 moveto (RequestType: enum = 'HWTriggeredRODEmulationRequest') show
 623.65 265.13 moveto (MessageLossEmulation) show
 618.79 256.89 moveto (ClearLostPercent: float = '0') show
 618.79 250.16 moveto (ROILostPercent: float = '0') show
 618.79 243.42 moveto (EBLostPercent: float = '0') show
 253.15 312.28 moveto (NullTriggerIn) show
 447.01 231.07 moveto (RobinDataDrivenTriggerIn) show
 440.27 222.84 moveto (QueueSize: u32 = '200') show
 440.27 216.10 moveto (QueueUnblockOffset: u32 = '1') show
 440.27 209.37 moveto (RobinProbeInterval: u32 = '500') show
 291.33 270.74 moveto (TCPTriggerIn) show
 269.62 262.51 moveto (TriggerSourceIPAddress: string) show
 269.62 255.77 moveto (TriggerSourcePort: u32 = '10001') show
 269.62 249.04 moveto (ConnectTimeout: u32 = '1') show
 269.62 242.30 moveto (ClearDelay: u32 = '0') show
 178.30 94.85 moveto (DummyReadoutModule) show
 174.56 86.61 moveto (DataSize: enum = 'FIXED') show
 399.48 95.22 moveto (EmulatedReadoutModule) show
 388.25 86.99 moveto (GetFragmentDelay: u32 = '0') show
 388.25 80.25 moveto (MessageDelay: u32 = '0') show
 388.25 73.52 moveto (ReleaseDelay: u32 = '0') show
 388.25 66.78 moveto (ReleaseGroupDelay: u32 = '0') show
 388.25 60.04 moveto (GetMissingFragment: float = '0.0') show
 388.25 53.31 moveto (DetEvType: u32 = '0') show
 388.25 46.57 moveto (NumberOfStatusElements: s32 = '1') show
 388.25 39.83 moveto (StatusBlockPosition: u32 = '0') show
 388.25 33.10 moveto (DataSize: enum = 'FIXED') show
 420.44 115.81 moveto (EmulatedSequentialReadoutModule) show
 326.50 115.81 moveto (EmulatedSingleFragmentReadoutModule) show
 256.52 115.43 moveto (EthSequentialReadoutModule) show
 314.90 94.85 moveto (FilarReadoutModule) show
 310.04 86.61 moveto (RevisionNumber: u32) show
 310.04 79.88 moveto (FastTestMode: u32 = '0') show
 129.28 116.18 moveto (PreloadedReadoutModule) show
 246.42 94.47 moveto (PseudoROSModule) show
 235.94 86.24 moveto (TriggerQueue: enum = 'Trgin') show
 106.08 95.22 moveto (RobinReadoutModule) show
 88.49 86.99 moveto (RevisionNumber: u32 = '0x40005') show
 88.49 80.25 moveto (Timeout: float = '10') show
 88.49 73.52 moveto (NumberOfOutstandingReq: u32 = '28') show
 88.49 66.78 moveto (MsgInputMemorySize: u32 = '0x1800') show
 88.49 60.04 moveto (MiscSize: u32 = '0x10000') show
 88.49 53.31 moveto (BaseIPAddress: string = '0') show
 88.49 46.57 moveto (NetworkEnabled: bool = '0') show
 88.49 39.83 moveto (EbistEnabled: bool = '0') show
 88.49 33.10 moveto (UDPBasePort: u32 = '9000') show
 88.49 26.36 moveto (DebugEnabled: bool = '0') show
 197.76 115.81 moveto (SSPCIReadoutModule) show
 483.31 95.22 moveto (TCPTriggerReadoutModule) show
 476.20 86.99 moveto (ConnectTimeout: u32 = '3') show
 476.20 80.25 moveto (TriggerSourcePort: u32 = '10001') show
 35.34 167.08 moveto (RobinDataChannel) show
 25.24 158.84 moveto (TestSize: u32 = '100') show
 25.24 152.11 moveto (RolDataGen: bool = '0') show
 25.24 145.37 moveto (DumpRolEnabled: bool = '0') show
 25.24 138.63 moveto (DcNodeId: u32 = '0xffffffff') show
 25.99 96.72 moveto (RobinExpertParameter) show
 25.24 88.49 moveto (Name: string) show
 25.24 81.75 moveto (Value: u32) show
 121.05 270.74 moveto (HW_Object) show
 110.94 262.51 moveto (Name: string) show
 110.94 255.77 moveto (Type: string) show
 110.94 249.04 moveto (Location: string) show
 110.94 242.30 moveto (Description: string) show
 110.94 235.56 moveto (HelpLink: string) show
 110.94 228.83 moveto (InstallationRef: string) show
 110.94 222.09 moveto (State: bool = 'true') show
 53.31 264.75 moveto (Resource) show
showpage
