%!PS-Adobe-2.0 EPSF-2.0
%%Creator: OKS Library, <Igor.Soloviev@cern.ch>, CERN EP/ATD
%%Title: unknown
%%BoundingBox: 20 285 575 795
%%Pages: 1
%%DocumentFonts: Helvetica-Narrow Times-Roman Helvetica
%%EndComments

% set image font
/Helvetica-Narrow findfont
7.09 scalefont
setfont

gsave
0.59 setlinewidth
0.00 0.00 0.00 setrgbcolor
 103.25 480.30 moveto 98.53 470.86 lineto stroke
 103.25 480.30 moveto 107.97 470.86 lineto stroke
 98.53 470.86 moveto 107.97 470.86 lineto stroke
 103.25 470.86 moveto 103.25 435.43 lineto stroke
 311.67 404.73 moveto 302.22 400.01 lineto stroke
 311.67 404.73 moveto 302.22 409.45 lineto stroke
 302.22 409.45 moveto 302.22 400.01 lineto stroke
 302.22 404.73 moveto 169.38 404.73 lineto stroke
 50.11 636.77 moveto 45.39 627.32 lineto stroke
 50.11 636.77 moveto 54.84 627.32 lineto stroke
 45.39 627.32 moveto 54.84 627.32 lineto stroke
 50.11 627.32 moveto 50.11 435.43 lineto stroke
 102.66 579.49 moveto 97.94 570.05 lineto stroke
 102.66 579.49 moveto 107.38 570.05 lineto stroke
 97.94 570.05 moveto 107.38 570.05 lineto stroke
 102.66 570.05 moveto 102.66 500.97 lineto stroke
 133.95 480.30 moveto 129.23 470.86 lineto stroke
 133.95 480.30 moveto 138.68 470.86 lineto stroke
 129.23 470.86 moveto 138.68 470.86 lineto stroke
 133.95 470.86 moveto 133.95 460.23 lineto stroke
 214.25 630.86 moveto 209.53 621.41 lineto stroke
 214.25 630.86 moveto 218.97 621.41 lineto stroke
 209.53 621.41 moveto 218.97 621.41 lineto stroke
 214.25 621.41 moveto 214.25 608.43 lineto stroke
 214.25 608.43 moveto 110.34 608.43 lineto stroke
 110.34 608.43 moveto 110.34 600.16 lineto stroke
 92.03 600.16 moveto 88.49 605.47 lineto stroke
 92.03 600.16 moveto 95.57 605.47 lineto stroke
 88.49 605.47 moveto 92.03 610.79 lineto stroke
 95.57 605.47 moveto 92.03 610.79 lineto stroke
 92.03 610.79 moveto 92.03 647.39 lineto stroke
 92.03 647.39 moveto 186.50 647.39 lineto stroke
 214.25 630.86 moveto 209.53 621.41 lineto stroke
 214.25 630.86 moveto 218.97 621.41 lineto stroke
 209.53 621.41 moveto 218.97 621.41 lineto stroke
 214.25 621.41 moveto 214.25 608.43 lineto stroke
 214.25 608.43 moveto 341.78 608.43 lineto stroke
 341.78 608.43 moveto 341.78 597.21 lineto stroke
 351.23 576.54 moveto 346.51 567.10 lineto stroke
 351.23 576.54 moveto 355.95 567.10 lineto stroke
 346.51 567.10 moveto 355.95 567.10 lineto stroke
 351.23 567.10 moveto 351.23 549.97 lineto stroke
 357.72 597.21 moveto 353.00 606.65 lineto stroke
 357.72 597.21 moveto 362.45 606.65 lineto stroke
 353.00 606.65 moveto 362.45 606.65 lineto stroke
 357.72 606.65 moveto 357.72 632.04 lineto stroke
 357.72 632.04 moveto 303.40 632.04 lineto stroke
 303.40 632.04 moveto 303.40 647.39 lineto stroke
 260.89 480.30 moveto 257.35 474.99 lineto stroke
 260.89 480.30 moveto 264.44 474.99 lineto stroke
 257.35 474.99 moveto 260.89 469.68 lineto stroke
 264.44 474.99 moveto 260.89 469.68 lineto stroke
 260.89 469.68 moveto 260.89 427.16 lineto stroke
 260.89 427.16 moveto 311.67 427.16 lineto stroke
 339.42 436.02 moveto 335.88 441.34 lineto stroke
 339.42 436.02 moveto 342.96 441.34 lineto stroke
 335.88 441.34 moveto 339.42 446.65 lineto stroke
 342.96 441.34 moveto 339.42 446.65 lineto stroke
 339.42 446.65 moveto 339.42 508.05 lineto stroke
 149.89 480.30 moveto 145.17 470.86 lineto stroke
 149.89 480.30 moveto 154.62 470.86 lineto stroke
 145.17 470.86 moveto 154.62 470.86 lineto stroke
 149.89 470.86 moveto 149.89 460.23 lineto stroke
 525.40 544.07 moveto 520.68 534.62 lineto stroke
 525.40 544.07 moveto 530.13 534.62 lineto stroke
 520.68 534.62 moveto 530.13 534.62 lineto stroke
 525.40 534.62 moveto 525.40 517.50 lineto stroke
 455.73 647.98 moveto 451.01 638.54 lineto stroke
 455.73 647.98 moveto 460.46 638.54 lineto stroke
 451.01 638.54 moveto 460.46 638.54 lineto stroke
 455.73 638.54 moveto 455.73 629.68 lineto stroke
 455.73 629.68 moveto 527.77 629.68 lineto stroke
 527.77 629.68 moveto 527.77 617.87 lineto stroke
 316.39 692.86 moveto 311.67 683.41 lineto stroke
 316.39 692.86 moveto 321.12 683.41 lineto stroke
 311.67 683.41 moveto 321.12 683.41 lineto stroke
 316.39 683.41 moveto 316.39 676.91 lineto stroke
 316.39 676.91 moveto 51.88 676.91 lineto stroke
 51.88 676.91 moveto 51.88 668.06 lineto stroke
 369.53 508.05 moveto 364.81 498.61 lineto stroke
 369.53 508.05 moveto 374.26 498.61 lineto stroke
 364.81 498.61 moveto 374.26 498.61 lineto stroke
 369.53 498.61 moveto 369.53 490.34 lineto stroke
 316.39 692.86 moveto 311.67 683.41 lineto stroke
 316.39 692.86 moveto 321.12 683.41 lineto stroke
 311.67 683.41 moveto 321.12 683.41 lineto stroke
 316.39 683.41 moveto 316.39 676.91 lineto stroke
 316.39 676.91 moveto 454.55 676.91 lineto stroke
 454.55 676.91 moveto 454.55 668.65 lineto stroke
 316.39 692.86 moveto 311.67 683.41 lineto stroke
 316.39 692.86 moveto 321.12 683.41 lineto stroke
 311.67 683.41 moveto 321.12 683.41 lineto stroke
 316.39 683.41 moveto 316.39 676.91 lineto stroke
 316.39 676.91 moveto 302.81 676.91 lineto stroke
 302.81 676.91 moveto 302.81 668.06 lineto stroke
 455.73 647.98 moveto 451.01 638.54 lineto stroke
 455.73 647.98 moveto 460.46 638.54 lineto stroke
 451.01 638.54 moveto 460.46 638.54 lineto stroke
 455.73 638.54 moveto 455.73 629.68 lineto stroke
 455.73 629.68 moveto 404.96 629.68 lineto stroke
 404.96 629.68 moveto 404.96 490.34 lineto stroke
 316.98 650.94 moveto 322.30 647.39 lineto stroke
 316.98 650.94 moveto 322.30 654.48 lineto stroke
 322.30 647.39 moveto 327.61 650.94 lineto stroke
 322.30 654.48 moveto 327.61 650.94 lineto stroke
 327.61 650.94 moveto 407.91 650.94 lineto stroke
 316.98 663.34 moveto 322.30 659.79 lineto stroke
 316.98 663.34 moveto 322.30 666.88 lineto stroke
 322.30 659.79 moveto 327.61 663.34 lineto stroke
 322.30 666.88 moveto 327.61 663.34 lineto stroke
 327.61 663.34 moveto 407.91 663.34 lineto stroke
 455.73 647.98 moveto 451.01 638.54 lineto stroke
 455.73 647.98 moveto 460.46 638.54 lineto stroke
 451.01 638.54 moveto 460.46 638.54 lineto stroke
 455.73 638.54 moveto 455.73 629.68 lineto stroke
 455.73 629.68 moveto 448.65 629.68 lineto stroke
 448.65 629.68 moveto 448.65 618.46 lineto stroke
 434.48 597.80 moveto 430.94 592.48 lineto stroke
 434.48 597.80 moveto 438.02 592.48 lineto stroke
 430.94 592.48 moveto 434.48 587.17 lineto stroke
 438.02 592.48 moveto 434.48 587.17 lineto stroke
 434.48 587.17 moveto 434.48 490.34 lineto stroke
 507.69 509.23 moveto 461.05 509.23 lineto stroke
 461.05 509.23 moveto 461.05 597.80 lineto stroke
grestore
gsave
1.18 setlinewidth
0.00 0.00 0.00 setrgbcolor
 291.01 667.47 moveto 316.39 667.47 lineto stroke
 316.39 667.47 moveto 316.39 647.98 lineto stroke
 291.01 667.47 moveto 291.01 647.98 lineto stroke
 291.01 647.98 moveto 316.39 647.98 lineto stroke
 291.01 653.89 moveto 316.39 653.89 lineto stroke
 291.01 651.53 moveto 316.39 651.53 lineto stroke
 408.50 668.06 moveto 495.29 668.06 lineto stroke
 495.29 668.06 moveto 495.29 648.57 lineto stroke
 408.50 668.06 moveto 408.50 648.57 lineto stroke
 408.50 648.57 moveto 495.29 648.57 lineto stroke
 408.50 654.48 moveto 495.29 654.48 lineto stroke
 408.50 652.12 moveto 495.29 652.12 lineto stroke
 358.31 489.75 moveto 440.97 489.75 lineto stroke
 440.97 489.75 moveto 440.97 459.64 lineto stroke
 358.31 489.75 moveto 358.31 459.64 lineto stroke
 358.31 459.64 moveto 440.97 459.64 lineto stroke
 358.31 476.17 moveto 440.97 476.17 lineto stroke
 358.31 463.18 moveto 440.97 463.18 lineto stroke
 279.20 787.32 moveto 354.18 787.32 lineto stroke
 354.18 787.32 moveto 354.18 693.45 lineto stroke
 279.20 787.32 moveto 279.20 693.45 lineto stroke
 279.20 693.45 moveto 354.18 693.45 lineto stroke
 279.20 773.74 moveto 354.18 773.74 lineto stroke
 279.20 696.99 moveto 354.18 696.99 lineto stroke
 508.28 516.91 moveto 550.79 516.91 lineto stroke
 550.79 516.91 moveto 550.79 497.43 lineto stroke
 508.28 516.91 moveto 508.28 497.43 lineto stroke
 508.28 497.43 moveto 550.79 497.43 lineto stroke
 508.28 503.33 moveto 550.79 503.33 lineto stroke
 508.28 500.97 moveto 550.79 500.97 lineto stroke
 326.43 549.38 moveto 376.62 549.38 lineto stroke
 376.62 549.38 moveto 376.62 508.64 lineto stroke
 326.43 549.38 moveto 326.43 508.64 lineto stroke
 326.43 508.64 moveto 376.62 508.64 lineto stroke
 326.43 535.80 moveto 376.62 535.80 lineto stroke
 326.43 512.19 moveto 376.62 512.19 lineto stroke
 27.68 667.47 moveto 74.32 667.47 lineto stroke
 74.32 667.47 moveto 74.32 637.36 lineto stroke
 27.68 667.47 moveto 27.68 637.36 lineto stroke
 27.68 637.36 moveto 74.32 637.36 lineto stroke
 27.68 653.89 moveto 74.32 653.89 lineto stroke
 27.68 640.90 moveto 74.32 640.90 lineto stroke
 488.80 617.28 moveto 571.46 617.28 lineto stroke
 571.46 617.28 moveto 571.46 544.66 lineto stroke
 488.80 617.28 moveto 488.80 544.66 lineto stroke
 488.80 544.66 moveto 571.46 544.66 lineto stroke
 488.80 603.70 moveto 571.46 603.70 lineto stroke
 488.80 548.20 moveto 571.46 548.20 lineto stroke
 131.59 459.64 moveto 152.85 459.64 lineto stroke
 152.85 459.64 moveto 152.85 440.15 lineto stroke
 131.59 459.64 moveto 131.59 440.15 lineto stroke
 131.59 440.15 moveto 152.85 440.15 lineto stroke
 131.59 446.06 moveto 152.85 446.06 lineto stroke
 131.59 443.70 moveto 152.85 443.70 lineto stroke
 142.81 596.03 moveto 280.38 596.03 lineto stroke
 280.38 596.03 moveto 280.38 480.89 lineto stroke
 142.81 596.03 moveto 142.81 480.89 lineto stroke
 142.81 480.89 moveto 280.38 480.89 lineto stroke
 142.81 582.45 moveto 280.38 582.45 lineto stroke
 142.81 484.44 moveto 280.38 484.44 lineto stroke
 312.26 435.43 moveto 464.00 435.43 lineto stroke
 464.00 435.43 moveto 464.00 373.44 lineto stroke
 312.26 435.43 moveto 312.26 373.44 lineto stroke
 312.26 373.44 moveto 464.00 373.44 lineto stroke
 312.26 421.85 moveto 464.00 421.85 lineto stroke
 312.26 376.98 moveto 464.00 376.98 lineto stroke
 331.15 596.62 moveto 368.35 596.62 lineto stroke
 368.35 596.62 moveto 368.35 577.13 lineto stroke
 331.15 596.62 moveto 331.15 577.13 lineto stroke
 331.15 577.13 moveto 368.35 577.13 lineto stroke
 331.15 583.04 moveto 368.35 583.04 lineto stroke
 331.15 580.68 moveto 368.35 580.68 lineto stroke
 187.09 661.56 moveto 240.82 661.56 lineto stroke
 240.82 661.56 moveto 240.82 631.45 lineto stroke
 187.09 661.56 moveto 187.09 631.45 lineto stroke
 187.09 631.45 moveto 240.82 631.45 lineto stroke
 187.09 647.98 moveto 240.82 647.98 lineto stroke
 187.09 645.62 moveto 240.82 645.62 lineto stroke
 75.50 599.57 moveto 123.91 599.57 lineto stroke
 123.91 599.57 moveto 123.91 580.09 lineto stroke
 75.50 599.57 moveto 75.50 580.09 lineto stroke
 75.50 580.09 moveto 123.91 580.09 lineto stroke
 75.50 585.99 moveto 123.91 585.99 lineto stroke
 75.50 583.63 moveto 123.91 583.63 lineto stroke
 71.96 500.38 moveto 136.31 500.38 lineto stroke
 136.31 500.38 moveto 136.31 480.89 lineto stroke
 71.96 500.38 moveto 71.96 480.89 lineto stroke
 71.96 480.89 moveto 136.31 480.89 lineto stroke
 71.96 486.80 moveto 136.31 486.80 lineto stroke
 71.96 484.44 moveto 136.31 484.44 lineto stroke
 38.30 434.84 moveto 168.79 434.84 lineto stroke
 168.79 434.84 moveto 168.79 287.82 lineto stroke
 38.30 434.84 moveto 38.30 287.82 lineto stroke
 38.30 287.82 moveto 168.79 287.82 lineto stroke
 38.30 421.26 moveto 168.79 421.26 lineto stroke
 38.30 291.37 moveto 168.79 291.37 lineto stroke
 426.21 617.87 moveto 467.54 617.87 lineto stroke
 467.54 617.87 moveto 467.54 598.39 lineto stroke
 426.21 617.87 moveto 426.21 598.39 lineto stroke
 426.21 598.39 moveto 467.54 598.39 lineto stroke
 426.21 604.29 moveto 467.54 604.29 lineto stroke
 426.21 601.93 moveto 467.54 601.93 lineto stroke
grestore
 60.15 622.01 moveto (Contains) show
 171.15 639.13 moveto (1..N) show
 263.26 451.96 moveto (ReadoutModule) show
 296.32 418.90 moveto (0..N) show
 289.23 470.27 moveto (InputChannels) show
 342.37 499.79 moveto (0..N) show
 351.23 655.07 moveto (Source) show
 393.74 642.67 moveto (1..1) show
 341.78 667.47 moveto (Desctination) show
 393.74 655.07 moveto (1..1) show
 294.55 658.02 moveto (Cable) show
 412.04 658.61 moveto (HW_ConnectableObject) show
 370.12 480.30 moveto (HW_InputChannel) show
 360.68 467.31 moveto (PhysAddress: u32 = '0') show
 298.09 777.88 moveto (HW_Object) show
 281.56 764.89 moveto (Name: string) show
 281.56 754.26 moveto (Type: string) show
 281.56 743.63 moveto (Location: string) show
 281.56 733.01 moveto (Description: string) show
 281.56 722.38 moveto (HelpLink: string) show
 281.56 711.75 moveto (InstallationRef: string) show
 281.56 701.12 moveto (State: bool = 'true') show
 511.82 507.46 moveto (IO_Module) show
 329.97 539.94 moveto (InputChannel) show
 328.79 526.95 moveto (Id: u32 = '0') show
 328.79 516.32 moveto (Name: string) show
 37.12 658.02 moveto (Interface) show
 30.04 645.03 moveto (Label: string) show
 518.32 607.84 moveto (Module) show
 491.16 594.85 moveto (PhysAddress: u32 = '0') show
 491.16 584.22 moveto (CommAddress: u32) show
 491.16 573.59 moveto (Position: u16 = '0') show
 491.16 562.96 moveto (Width: u16 = '1') show
 491.16 552.34 moveto (LogicalId: u32 = '0') show
 135.13 450.19 moveto (ROS) show
 179.41 586.58 moveto (ReadoutApplication) show
 145.17 573.59 moveto (Trace: u32 = '0') show
 145.17 562.96 moveto (Package: u32 = '0') show
 145.17 552.34 moveto (QueueSize: u32 = '100') show
 145.17 541.71 moveto (QueueUnblockOffset: u32 = '90') show
 145.17 531.08 moveto (NumberOfRequestHandlers: u32 = '8') show
 145.17 520.45 moveto (RequestTimeOut: u32 = '1000000') show
 145.17 509.82 moveto (MonitoringScalingFactor: u32 = '10000') show
 145.17 499.20 moveto (Id: u16 = '0') show
 145.17 488.57 moveto (ThreadedConfigure: bool = 'false') show
 362.45 425.98 moveto (ReadoutModule) show
 314.62 412.99 moveto (ByteSwapping: bool = 'false') show
 314.62 402.37 moveto (PhysicalAddress: u32 = '0') show
 314.62 391.74 moveto (InputFragmentType: enum = 'RODFragment') show
 314.62 381.11 moveto (Name: string) show
 334.70 587.17 moveto (Resource) show
 190.63 652.12 moveto (ResourceBase) show
 189.45 636.18 moveto (get_resources) show
 79.04 590.12 moveto (ResourceSet) show
 75.50 490.93 moveto (ResourceSetAND) show
 68.41 425.39 moveto (RobinReadoutModule) show
 40.66 412.40 moveto (RevisionNumber: u32 = '0x40005') show
 40.66 401.78 moveto (FPGAVersion: u32) show
 40.66 391.15 moveto (Timeout: float = '10') show
 40.66 380.52 moveto (NumberOfOutstandingReq: u32 = '28') show
 40.66 369.89 moveto (MsgInputMemorySize: u32 = '0x1800') show
 40.66 359.27 moveto (MiscSize: u32 = '0x10000') show
 40.66 348.64 moveto (BaseIPAddress: string = '0') show
 40.66 338.01 moveto (NetworkEnabled: bool = '0') show
 40.66 327.38 moveto (EbistEnabled: bool = '0') show
 40.66 316.76 moveto (UDPBasePort: u32 = '9000') show
 40.66 306.13 moveto (DebugEnabled: bool = '0') show
 40.66 295.50 moveto (MaxRxPages: u32 = '16') show
 429.76 608.43 moveto (IO_Device) show
 436.84 542.30 moveto (Has) show
 419.13 494.47 moveto (0..N) show
 469.90 500.97 moveto (Contains) show
 464.00 589.53 moveto (0..N) show

% set header font
/Times-Roman findfont
10 scalefont
setfont

 20.00 820.00 moveto (Readout Connections) show
 20.00 805.00 moveto (Date: Tuesday March 06 2007 22:28:24) show

% set footer font
/Helvetica findfont
9 scalefont
setfont

 20.00 267.00 moveto (Database files:) show
 20.00 252.00 moveto (- '/afs/cern.ch/user/i/isolov/working/online/DFConfiguration/schema/df.schema.xml') show
 20.00 237.00 moveto (- '/afs/cern.ch/user/i/isolov/working/online/installed/share/data/dal/schema/core.schema.xml') show
showpage
